<?xml version="1.0" encoding="utf-8" standalone="no"?>
<!DOCTYPE svg PUBLIC "-//W3C//DTD SVG 1.1//EN"
  "http://www.w3.org/Graphics/SVG/1.1/DTD/svg11.dtd">
<!-- Created with matplotlib (https://matplotlib.org/) -->
<svg height="353.518125pt" version="1.1" viewBox="0 0 302.4 353.518125" width="302.4pt" xmlns="http://www.w3.org/2000/svg" xmlns:xlink="http://www.w3.org/1999/xlink">
 <defs>
  <style type="text/css">
*{stroke-linecap:butt;stroke-linejoin:round;}
  </style>
 </defs>
 <g id="figure_1">
  <g id="patch_1">
   <path d="M 0 353.518125 
L 302.4 353.518125 
L 302.4 0 
L 0 0 
z
" style="fill:none;"/>
  </g>
  <g id="axes_1">
   <g id="PathCollection_1">
    <defs>
     <path d="M 0 4.5 
C 1.193414 4.5 2.338109 4.025852 3.181981 3.181981 
C 4.025852 2.338109 4.5 1.193414 4.5 0 
C 4.5 -1.193414 4.025852 -2.338109 3.181981 -3.181981 
C 2.338109 -4.025852 1.193414 -4.5 0 -4.5 
C -1.193414 -4.5 -2.338109 -4.025852 -3.181981 -3.181981 
C -4.025852 -2.338109 -4.5 -1.193414 -4.5 0 
C -4.5 1.193414 -4.025852 2.338109 -3.181981 3.181981 
C -2.338109 4.025852 -1.193414 4.5 0 4.5 
z
" id="m9c991589c5"/>
    </defs>
    <g clip-path="url(#pfaf67e889f)">
     <use style="fill:#0054a8;" x="204.214266" xlink:href="#m9c991589c5" y="266.611304"/>
     <use style="fill:#0054a8;" x="194.274091" xlink:href="#m9c991589c5" y="86.350055"/>
     <use style="fill:#0054a8;" x="98.185734" xlink:href="#m9c991589c5" y="149.04962"/>
     <use style="fill:#0054a8;" x="108.125909" xlink:href="#m9c991589c5" y="227.424076"/>
     <use style="fill:#0054a8;" x="141.259825" xlink:href="#m9c991589c5" y="86.350055"/>
     <use style="fill:#0054a8;" x="174.393741" xlink:href="#m9c991589c5" y="329.310868"/>
     <use style="fill:#0054a8;" x="210.841049" xlink:href="#m9c991589c5" y="188.236848"/>
     <use style="fill:#0054a8;" x="287.049057" xlink:href="#m9c991589c5" y="156.887065"/>
     <use style="fill:#0054a8;" x="257.228532" xlink:href="#m9c991589c5" y="337.148314"/>
     <use style="fill:#0054a8;" x="31.917902" xlink:href="#m9c991589c5" y="86.350055"/>
     <use style="fill:#0054a8;" x="204.214266" xlink:href="#m9c991589c5" y="82.431333"/>
     <use style="fill:#0054a8;" x="210.841049" xlink:href="#m9c991589c5" y="31.487936"/>
     <use style="fill:#0054a8;" x="118.066084" xlink:href="#m9c991589c5" y="78.51261"/>
     <use style="fill:#0054a8;" x="94.872342" xlink:href="#m9c991589c5" y="192.155571"/>
     <use style="fill:#0054a8;" x="25.291118" xlink:href="#m9c991589c5" y="317.5547"/>
     <use style="fill:#0054a8;" x="15.350943" xlink:href="#m9c991589c5" y="184.318125"/>
     <use style="fill:#0054a8;" x="28.60451" xlink:href="#m9c991589c5" y="51.08155"/>
     <use style="fill:#0054a8;" x="94.872342" xlink:href="#m9c991589c5" y="258.773858"/>
     <use style="fill:#0054a8;" x="247.288357" xlink:href="#m9c991589c5" y="129.456006"/>
     <use style="fill:#0054a8;" x="151.2" xlink:href="#m9c991589c5" y="160.805788"/>
    </g>
   </g>
   <g id="line2d_1">
    <path clip-path="url(#pfaf67e889f)" d="M 204.214266 266.611304 
L 108.125909 227.424076 
" style="fill:none;stroke:#0054a8;stroke-linecap:square;stroke-width:2.378289;"/>
   </g>
   <g id="line2d_2">
    <path clip-path="url(#pfaf67e889f)" d="M 204.214266 266.611304 
L 174.393741 329.310868 
" style="fill:none;stroke:#0054a8;stroke-linecap:square;stroke-width:2.333882;"/>
   </g>
   <g id="line2d_3">
    <path clip-path="url(#pfaf67e889f)" d="M 204.214266 266.611304 
L 210.841049 188.236848 
" style="fill:none;"/>
   </g>
   <g id="line2d_4">
    <path clip-path="url(#pfaf67e889f)" d="M 204.214266 266.611304 
L 287.049057 156.887065 
" style="fill:none;stroke:#0054a8;stroke-linecap:square;stroke-width:3;"/>
   </g>
   <g id="line2d_5">
    <path clip-path="url(#pfaf67e889f)" d="M 204.214266 266.611304 
L 257.228532 337.148314 
" style="fill:none;stroke:#0054a8;stroke-linecap:square;stroke-width:2.716283;"/>
   </g>
   <g id="line2d_6">
    <path clip-path="url(#pfaf67e889f)" d="M 204.214266 266.611304 
L 151.2 160.805788 
" style="fill:none;stroke:#0054a8;stroke-linecap:square;stroke-width:2.410362;"/>
   </g>
   <g id="line2d_7">
    <path clip-path="url(#pfaf67e889f)" d="M 194.274091 86.350055 
L 141.259825 86.350055 
" style="fill:none;stroke:#0054a8;stroke-linecap:square;stroke-width:2.230263;"/>
   </g>
   <g id="line2d_8">
    <path clip-path="url(#pfaf67e889f)" d="M 194.274091 86.350055 
L 210.841049 188.236848 
" style="fill:none;"/>
   </g>
   <g id="line2d_9">
    <path clip-path="url(#pfaf67e889f)" d="M 194.274091 86.350055 
L 204.214266 82.431333 
" style="fill:none;stroke:#0054a8;stroke-linecap:square;stroke-width:2.114309;"/>
   </g>
   <g id="line2d_10">
    <path clip-path="url(#pfaf67e889f)" d="M 194.274091 86.350055 
L 210.841049 31.487936 
" style="fill:none;stroke:#0054a8;stroke-linecap:square;stroke-width:2.331414;"/>
   </g>
   <g id="line2d_11">
    <path clip-path="url(#pfaf67e889f)" d="M 194.274091 86.350055 
L 247.288357 129.456006 
" style="fill:none;stroke:#0054a8;stroke-linecap:square;stroke-width:2.257401;"/>
   </g>
   <g id="line2d_12">
    <path clip-path="url(#pfaf67e889f)" d="M 194.274091 86.350055 
L 151.2 160.805788 
" style="fill:none;stroke:#0054a8;stroke-linecap:square;stroke-width:2.217928;"/>
   </g>
   <g id="line2d_13">
    <path clip-path="url(#pfaf67e889f)" d="M 98.185734 149.04962 
L 141.259825 86.350055 
" style="fill:none;"/>
   </g>
   <g id="line2d_14">
    <path clip-path="url(#pfaf67e889f)" d="M 98.185734 149.04962 
L 31.917902 86.350055 
" style="fill:none;"/>
   </g>
   <g id="line2d_15">
    <path clip-path="url(#pfaf67e889f)" d="M 98.185734 149.04962 
L 118.066084 78.51261 
" style="fill:none;"/>
   </g>
   <g id="line2d_16">
    <path clip-path="url(#pfaf67e889f)" d="M 98.185734 149.04962 
L 94.872342 192.155571 
" style="fill:none;"/>
   </g>
   <g id="line2d_17">
    <path clip-path="url(#pfaf67e889f)" d="M 98.185734 149.04962 
L 15.350943 184.318125 
" style="fill:none;"/>
   </g>
   <g id="line2d_18">
    <path clip-path="url(#pfaf67e889f)" d="M 98.185734 149.04962 
L 151.2 160.805788 
" style="fill:none;stroke:#0054a8;stroke-linecap:square;stroke-width:2.703947;"/>
   </g>
   <g id="line2d_19">
    <path clip-path="url(#pfaf67e889f)" d="M 108.125909 227.424076 
L 204.214266 266.611304 
" style="fill:none;stroke:#0054a8;stroke-linecap:square;stroke-width:2.378289;"/>
   </g>
   <g id="line2d_20">
    <path clip-path="url(#pfaf67e889f)" d="M 108.125909 227.424076 
L 174.393741 329.310868 
" style="fill:none;stroke:#0054a8;stroke-linecap:square;stroke-width:2.32648;"/>
   </g>
   <g id="line2d_21">
    <path clip-path="url(#pfaf67e889f)" d="M 108.125909 227.424076 
L 94.872342 192.155571 
" style="fill:none;stroke:#0054a8;stroke-linecap:square;stroke-width:2.378289;"/>
   </g>
   <g id="line2d_22">
    <path clip-path="url(#pfaf67e889f)" d="M 108.125909 227.424076 
L 94.872342 258.773858 
" style="fill:none;stroke:#0054a8;stroke-linecap:square;stroke-width:2.383224;"/>
   </g>
   <g id="line2d_23">
    <path clip-path="url(#pfaf67e889f)" d="M 108.125909 227.424076 
L 151.2 160.805788 
" style="fill:none;stroke:#0054a8;stroke-linecap:square;stroke-width:2.563322;"/>
   </g>
   <g id="line2d_24">
    <path clip-path="url(#pfaf67e889f)" d="M 141.259825 86.350055 
L 194.274091 86.350055 
" style="fill:none;stroke:#0054a8;stroke-linecap:square;stroke-width:2.230263;"/>
   </g>
   <g id="line2d_25">
    <path clip-path="url(#pfaf67e889f)" d="M 141.259825 86.350055 
L 98.185734 149.04962 
" style="fill:none;"/>
   </g>
   <g id="line2d_26">
    <path clip-path="url(#pfaf67e889f)" d="M 141.259825 86.350055 
L 210.841049 31.487936 
" style="fill:none;"/>
   </g>
   <g id="line2d_27">
    <path clip-path="url(#pfaf67e889f)" d="M 141.259825 86.350055 
L 118.066084 78.51261 
" style="fill:none;"/>
   </g>
   <g id="line2d_28">
    <path clip-path="url(#pfaf67e889f)" d="M 141.259825 86.350055 
L 151.2 160.805788 
" style="fill:none;stroke:#0054a8;stroke-linecap:square;stroke-width:2.230263;"/>
   </g>
   <g id="line2d_29">
    <path clip-path="url(#pfaf67e889f)" d="M 174.393741 329.310868 
L 204.214266 266.611304 
" style="fill:none;stroke:#0054a8;stroke-linecap:square;stroke-width:2.333882;"/>
   </g>
   <g id="line2d_30">
    <path clip-path="url(#pfaf67e889f)" d="M 174.393741 329.310868 
L 108.125909 227.424076 
" style="fill:none;stroke:#0054a8;stroke-linecap:square;stroke-width:2.32648;"/>
   </g>
   <g id="line2d_31">
    <path clip-path="url(#pfaf67e889f)" d="M 174.393741 329.310868 
L 257.228532 337.148314 
" style="fill:none;stroke:#0054a8;stroke-linecap:square;stroke-width:2.666941;"/>
   </g>
   <g id="line2d_32">
    <path clip-path="url(#pfaf67e889f)" d="M 174.393741 329.310868 
L 25.291118 317.5547 
" style="fill:none;stroke:#0054a8;stroke-linecap:square;stroke-width:2.171053;"/>
   </g>
   <g id="line2d_33">
    <path clip-path="url(#pfaf67e889f)" d="M 174.393741 329.310868 
L 94.872342 258.773858 
" style="fill:none;"/>
   </g>
   <g id="line2d_34">
    <path clip-path="url(#pfaf67e889f)" d="M 210.841049 188.236848 
L 204.214266 266.611304 
" style="fill:none;"/>
   </g>
   <g id="line2d_35">
    <path clip-path="url(#pfaf67e889f)" d="M 210.841049 188.236848 
L 194.274091 86.350055 
" style="fill:none;"/>
   </g>
   <g id="line2d_36">
    <path clip-path="url(#pfaf67e889f)" d="M 210.841049 188.236848 
L 287.049057 156.887065 
" style="fill:none;"/>
   </g>
   <g id="line2d_37">
    <path clip-path="url(#pfaf67e889f)" d="M 210.841049 188.236848 
L 247.288357 129.456006 
" style="fill:none;stroke:#0054a8;stroke-linecap:square;stroke-width:2.257401;"/>
   </g>
   <g id="line2d_38">
    <path clip-path="url(#pfaf67e889f)" d="M 210.841049 188.236848 
L 151.2 160.805788 
" style="fill:none;stroke:#0054a8;stroke-linecap:square;stroke-width:2.257401;"/>
   </g>
   <g id="line2d_39">
    <path clip-path="url(#pfaf67e889f)" d="M 287.049057 156.887065 
L 204.214266 266.611304 
" style="fill:none;stroke:#0054a8;stroke-linecap:square;stroke-width:3;"/>
   </g>
   <g id="line2d_40">
    <path clip-path="url(#pfaf67e889f)" d="M 287.049057 156.887065 
L 210.841049 188.236848 
" style="fill:none;"/>
   </g>
   <g id="line2d_41">
    <path clip-path="url(#pfaf67e889f)" d="M 287.049057 156.887065 
L 257.228532 337.148314 
" style="fill:none;"/>
   </g>
   <g id="line2d_42">
    <path clip-path="url(#pfaf67e889f)" d="M 287.049057 156.887065 
L 247.288357 129.456006 
" style="fill:none;"/>
   </g>
   <g id="line2d_43">
    <path clip-path="url(#pfaf67e889f)" d="M 257.228532 337.148314 
L 204.214266 266.611304 
" style="fill:none;stroke:#0054a8;stroke-linecap:square;stroke-width:2.716283;"/>
   </g>
   <g id="line2d_44">
    <path clip-path="url(#pfaf67e889f)" d="M 257.228532 337.148314 
L 174.393741 329.310868 
" style="fill:none;stroke:#0054a8;stroke-linecap:square;stroke-width:2.666941;"/>
   </g>
   <g id="line2d_45">
    <path clip-path="url(#pfaf67e889f)" d="M 257.228532 337.148314 
L 287.049057 156.887065 
" style="fill:none;"/>
   </g>
   <g id="line2d_46">
    <path clip-path="url(#pfaf67e889f)" d="M 31.917902 86.350055 
L 98.185734 149.04962 
" style="fill:none;"/>
   </g>
   <g id="line2d_47">
    <path clip-path="url(#pfaf67e889f)" d="M 31.917902 86.350055 
L 118.066084 78.51261 
" style="fill:none;"/>
   </g>
   <g id="line2d_48">
    <path clip-path="url(#pfaf67e889f)" d="M 31.917902 86.350055 
L 15.350943 184.318125 
" style="fill:none;"/>
   </g>
   <g id="line2d_49">
    <path clip-path="url(#pfaf67e889f)" d="M 31.917902 86.350055 
L 28.60451 51.08155 
" style="fill:none;"/>
   </g>
   <g id="line2d_50">
    <path clip-path="url(#pfaf67e889f)" d="M 204.214266 82.431333 
L 194.274091 86.350055 
" style="fill:none;stroke:#0054a8;stroke-linecap:square;stroke-width:2.114309;"/>
   </g>
   <g id="line2d_51">
    <path clip-path="url(#pfaf67e889f)" d="M 204.214266 82.431333 
L 210.841049 31.487936 
" style="fill:none;stroke:#0054a8;stroke-linecap:square;stroke-width:2.114309;"/>
   </g>
   <g id="line2d_52">
    <path clip-path="url(#pfaf67e889f)" d="M 204.214266 82.431333 
L 247.288357 129.456006 
" style="fill:none;"/>
   </g>
   <g id="line2d_53">
    <path clip-path="url(#pfaf67e889f)" d="M 210.841049 31.487936 
L 194.274091 86.350055 
" style="fill:none;stroke:#0054a8;stroke-linecap:square;stroke-width:2.331414;"/>
   </g>
   <g id="line2d_54">
    <path clip-path="url(#pfaf67e889f)" d="M 210.841049 31.487936 
L 141.259825 86.350055 
" style="fill:none;"/>
   </g>
   <g id="line2d_55">
    <path clip-path="url(#pfaf67e889f)" d="M 210.841049 31.487936 
L 204.214266 82.431333 
" style="fill:none;stroke:#0054a8;stroke-linecap:square;stroke-width:2.114309;"/>
   </g>
   <g id="line2d_56">
    <path clip-path="url(#pfaf67e889f)" d="M 210.841049 31.487936 
L 118.066084 78.51261 
" style="fill:none;stroke:#0054a8;stroke-linecap:square;stroke-width:2.467105;"/>
   </g>
   <g id="line2d_57">
    <path clip-path="url(#pfaf67e889f)" d="M 118.066084 78.51261 
L 98.185734 149.04962 
" style="fill:none;"/>
   </g>
   <g id="line2d_58">
    <path clip-path="url(#pfaf67e889f)" d="M 118.066084 78.51261 
L 141.259825 86.350055 
" style="fill:none;"/>
   </g>
   <g id="line2d_59">
    <path clip-path="url(#pfaf67e889f)" d="M 118.066084 78.51261 
L 31.917902 86.350055 
" style="fill:none;"/>
   </g>
   <g id="line2d_60">
    <path clip-path="url(#pfaf67e889f)" d="M 118.066084 78.51261 
L 210.841049 31.487936 
" style="fill:none;stroke:#0054a8;stroke-linecap:square;stroke-width:2.467105;"/>
   </g>
   <g id="line2d_61">
    <path clip-path="url(#pfaf67e889f)" d="M 118.066084 78.51261 
L 28.60451 51.08155 
" style="fill:none;stroke:#0054a8;stroke-linecap:square;stroke-width:2.467105;"/>
   </g>
   <g id="line2d_62">
    <path clip-path="url(#pfaf67e889f)" d="M 94.872342 192.155571 
L 98.185734 149.04962 
" style="fill:none;"/>
   </g>
   <g id="line2d_63">
    <path clip-path="url(#pfaf67e889f)" d="M 94.872342 192.155571 
L 108.125909 227.424076 
" style="fill:none;stroke:#0054a8;stroke-linecap:square;stroke-width:2.378289;"/>
   </g>
   <g id="line2d_64">
    <path clip-path="url(#pfaf67e889f)" d="M 94.872342 192.155571 
L 15.350943 184.318125 
" style="fill:none;stroke:#0054a8;stroke-linecap:square;stroke-width:2.222862;"/>
   </g>
   <g id="line2d_65">
    <path clip-path="url(#pfaf67e889f)" d="M 94.872342 192.155571 
L 94.872342 258.773858 
" style="fill:none;stroke:#0054a8;stroke-linecap:square;stroke-width:2.321546;"/>
   </g>
   <g id="line2d_66">
    <path clip-path="url(#pfaf67e889f)" d="M 94.872342 192.155571 
L 151.2 160.805788 
" style="fill:none;"/>
   </g>
   <g id="line2d_67">
    <path clip-path="url(#pfaf67e889f)" d="M 25.291118 317.5547 
L 174.393741 329.310868 
" style="fill:none;stroke:#0054a8;stroke-linecap:square;stroke-width:2.171053;"/>
   </g>
   <g id="line2d_68">
    <path clip-path="url(#pfaf67e889f)" d="M 25.291118 317.5547 
L 15.350943 184.318125 
" style="fill:none;stroke:#0054a8;stroke-linecap:square;stroke-width:2.171053;"/>
   </g>
   <g id="line2d_69">
    <path clip-path="url(#pfaf67e889f)" d="M 25.291118 317.5547 
L 94.872342 258.773858 
" style="fill:none;"/>
   </g>
   <g id="line2d_70">
    <path clip-path="url(#pfaf67e889f)" d="M 15.350943 184.318125 
L 98.185734 149.04962 
" style="fill:none;"/>
   </g>
   <g id="line2d_71">
    <path clip-path="url(#pfaf67e889f)" d="M 15.350943 184.318125 
L 31.917902 86.350055 
" style="fill:none;"/>
   </g>
   <g id="line2d_72">
    <path clip-path="url(#pfaf67e889f)" d="M 15.350943 184.318125 
L 94.872342 192.155571 
" style="fill:none;stroke:#0054a8;stroke-linecap:square;stroke-width:2.222862;"/>
   </g>
   <g id="line2d_73">
    <path clip-path="url(#pfaf67e889f)" d="M 15.350943 184.318125 
L 25.291118 317.5547 
" style="fill:none;stroke:#0054a8;stroke-linecap:square;stroke-width:2.171053;"/>
   </g>
   <g id="line2d_74">
    <path clip-path="url(#pfaf67e889f)" d="M 15.350943 184.318125 
L 94.872342 258.773858 
" style="fill:none;stroke:#0054a8;stroke-linecap:square;stroke-width:2.306743;"/>
   </g>
   <g id="line2d_75">
    <path clip-path="url(#pfaf67e889f)" d="M 28.60451 51.08155 
L 31.917902 86.350055 
" style="fill:none;"/>
   </g>
   <g id="line2d_76">
    <path clip-path="url(#pfaf67e889f)" d="M 28.60451 51.08155 
L 118.066084 78.51261 
" style="fill:none;stroke:#0054a8;stroke-linecap:square;stroke-width:2.467105;"/>
   </g>
   <g id="line2d_77">
    <path clip-path="url(#pfaf67e889f)" d="M 94.872342 258.773858 
L 108.125909 227.424076 
" style="fill:none;stroke:#0054a8;stroke-linecap:square;stroke-width:2.383224;"/>
   </g>
   <g id="line2d_78">
    <path clip-path="url(#pfaf67e889f)" d="M 94.872342 258.773858 
L 174.393741 329.310868 
" style="fill:none;"/>
   </g>
   <g id="line2d_79">
    <path clip-path="url(#pfaf67e889f)" d="M 94.872342 258.773858 
L 94.872342 192.155571 
" style="fill:none;stroke:#0054a8;stroke-linecap:square;stroke-width:2.321546;"/>
   </g>
   <g id="line2d_80">
    <path clip-path="url(#pfaf67e889f)" d="M 94.872342 258.773858 
L 25.291118 317.5547 
" style="fill:none;"/>
   </g>
   <g id="line2d_81">
    <path clip-path="url(#pfaf67e889f)" d="M 94.872342 258.773858 
L 15.350943 184.318125 
" style="fill:none;stroke:#0054a8;stroke-linecap:square;stroke-width:2.306743;"/>
   </g>
   <g id="line2d_82">
    <path clip-path="url(#pfaf67e889f)" d="M 247.288357 129.456006 
L 194.274091 86.350055 
" style="fill:none;stroke:#0054a8;stroke-linecap:square;stroke-width:2.257401;"/>
   </g>
   <g id="line2d_83">
    <path clip-path="url(#pfaf67e889f)" d="M 247.288357 129.456006 
L 210.841049 188.236848 
" style="fill:none;stroke:#0054a8;stroke-linecap:square;stroke-width:2.257401;"/>
   </g>
   <g id="line2d_84">
    <path clip-path="url(#pfaf67e889f)" d="M 247.288357 129.456006 
L 287.049057 156.887065 
" style="fill:none;"/>
   </g>
   <g id="line2d_85">
    <path clip-path="url(#pfaf67e889f)" d="M 247.288357 129.456006 
L 204.214266 82.431333 
" style="fill:none;"/>
   </g>
   <g id="line2d_86">
    <path clip-path="url(#pfaf67e889f)" d="M 151.2 160.805788 
L 204.214266 266.611304 
" style="fill:none;stroke:#0054a8;stroke-linecap:square;stroke-width:2.410362;"/>
   </g>
   <g id="line2d_87">
    <path clip-path="url(#pfaf67e889f)" d="M 151.2 160.805788 
L 194.274091 86.350055 
" style="fill:none;stroke:#0054a8;stroke-linecap:square;stroke-width:2.217928;"/>
   </g>
   <g id="line2d_88">
    <path clip-path="url(#pfaf67e889f)" d="M 151.2 160.805788 
L 98.185734 149.04962 
" style="fill:none;stroke:#0054a8;stroke-linecap:square;stroke-width:2.703947;"/>
   </g>
   <g id="line2d_89">
    <path clip-path="url(#pfaf67e889f)" d="M 151.2 160.805788 
L 108.125909 227.424076 
" style="fill:none;stroke:#0054a8;stroke-linecap:square;stroke-width:2.563322;"/>
   </g>
   <g id="line2d_90">
    <path clip-path="url(#pfaf67e889f)" d="M 151.2 160.805788 
L 141.259825 86.350055 
" style="fill:none;stroke:#0054a8;stroke-linecap:square;stroke-width:2.230263;"/>
   </g>
   <g id="line2d_91">
    <path clip-path="url(#pfaf67e889f)" d="M 151.2 160.805788 
L 210.841049 188.236848 
" style="fill:none;stroke:#0054a8;stroke-linecap:square;stroke-width:2.257401;"/>
   </g>
   <g id="line2d_92">
    <path clip-path="url(#pfaf67e889f)" d="M 151.2 160.805788 
L 94.872342 192.155571 
" style="fill:none;"/>
   </g>
   <g id="text_1">
    <text style="font-family:DejaVu Sans;font-size:12px;font-style:normal;font-weight:normal;text-anchor:middle;" transform="rotate(-0, 151.2, 16.318125)" x="151.2" y="16.318125">Open Probability = 0.7</text>
   </g>
   <g id="PathCollection_2">
    <defs>
     <path d="M 0 6 
C 1.591219 6 3.117479 5.367802 4.242641 4.242641 
C 5.367802 3.117479 6 1.591219 6 0 
C 6 -1.591219 5.367802 -3.117479 4.242641 -4.242641 
C 3.117479 -5.367802 1.591219 -6 0 -6 
C -1.591219 -6 -3.117479 -5.367802 -4.242641 -4.242641 
C -5.367802 -3.117479 -6 -1.591219 -6 0 
C -6 1.591219 -5.367802 3.117479 -4.242641 4.242641 
C -3.117479 5.367802 -1.591219 6 0 6 
z
" id="m3253c2f70f"/>
    </defs>
    <g clip-path="url(#pfaf67e889f)">
     <use style="fill:#54a800;" x="257.228532" xlink:href="#m3253c2f70f" y="337.148314"/>
    </g>
   </g>
   <g id="PathCollection_3">
    <defs>
     <path d="M 0 6 
C 1.591219 6 3.117479 5.367802 4.242641 4.242641 
C 5.367802 3.117479 6 1.591219 6 0 
C 6 -1.591219 5.367802 -3.117479 4.242641 -4.242641 
C 3.117479 -5.367802 1.591219 -6 0 -6 
C -1.591219 -6 -3.117479 -5.367802 -4.242641 -4.242641 
C -5.367802 -3.117479 -6 -1.591219 -6 0 
C -6 1.591219 -5.367802 3.117479 -4.242641 4.242641 
C -3.117479 5.367802 -1.591219 6 0 6 
z
" id="m0993166e15"/>
    </defs>
    <g clip-path="url(#pfaf67e889f)">
     <use style="fill:#a80000;" x="28.60451" xlink:href="#m0993166e15" y="51.08155"/>
    </g>
   </g>
  </g>
 </g>
 <defs>
  <clipPath id="pfaf67e889f">
   <rect height="324" width="288" x="7.2" y="22.318125"/>
  </clipPath>
 </defs>
</svg>
