<?xml version="1.0" encoding="utf-8" standalone="no"?>
<!DOCTYPE svg PUBLIC "-//W3C//DTD SVG 1.1//EN"
  "http://www.w3.org/Graphics/SVG/1.1/DTD/svg11.dtd">
<!-- Created with matplotlib (https://matplotlib.org/) -->
<svg height="316.380003pt" version="1.1" viewBox="0 0 715.672224 316.380003" width="715.672224pt" xmlns="http://www.w3.org/2000/svg" xmlns:xlink="http://www.w3.org/1999/xlink">
 <defs>
  <style type="text/css">
*{stroke-linecap:butt;stroke-linejoin:round;}
  </style>
 </defs>
 <g id="figure_1">
  <g id="patch_1">
   <path d="M 0 316.380003 
L 715.672224 316.380003 
L 715.672224 0 
L 0 0 
z
" style="fill:none;"/>
  </g>
  <g id="axes_1">
   <g id="patch_2">
    <path d="M 38.872224 294.118125 
L 235.813401 294.118125 
L 235.813401 22.318125 
L 38.872224 22.318125 
z
" style="fill:#ffffff;"/>
   </g>
   <g id="PathCollection_1">
    <defs>
     <path d="M 0 4.5 
C 1.193414 4.5 2.338109 4.025852 3.181981 3.181981 
C 4.025852 2.338109 4.5 1.193414 4.5 0 
C 4.5 -1.193414 4.025852 -2.338109 3.181981 -3.181981 
C 2.338109 -4.025852 1.193414 -4.5 0 -4.5 
C -1.193414 -4.5 -2.338109 -4.025852 -3.181981 -3.181981 
C -4.025852 -2.338109 -4.5 -1.193414 -4.5 0 
C -4.5 1.193414 -4.025852 2.338109 -3.181981 3.181981 
C -2.338109 4.025852 -1.193414 4.5 0 4.5 
z
" id="m7d36403f72"/>
    </defs>
    <g clip-path="url(#p2134847087)">
     <use style="fill:#0054a8;" x="173.595215" xlink:href="#m7d36403f72" y="227.252958"/>
     <use style="fill:#0054a8;" x="166.79789" xlink:href="#m7d36403f72" y="76.0338"/>
     <use style="fill:#0054a8;" x="101.09041" xlink:href="#m7d36403f72" y="128.631768"/>
     <use style="fill:#0054a8;" x="107.887735" xlink:href="#m7d36403f72" y="194.379228"/>
     <use style="fill:#0054a8;" x="130.545487" xlink:href="#m7d36403f72" y="76.0338"/>
     <use style="fill:#0054a8;" x="153.203239" xlink:href="#m7d36403f72" y="279.850926"/>
     <use style="fill:#0054a8;" x="178.126765" xlink:href="#m7d36403f72" y="161.505498"/>
     <use style="fill:#0054a8;" x="230.239594" xlink:href="#m7d36403f72" y="135.206514"/>
     <use style="fill:#0054a8;" x="209.847617" xlink:href="#m7d36403f72" y="286.425672"/>
     <use style="fill:#0054a8;" x="55.774907" xlink:href="#m7d36403f72" y="76.0338"/>
     <use style="fill:#0054a8;" x="173.595215" xlink:href="#m7d36403f72" y="72.746427"/>
     <use style="fill:#0054a8;" x="178.126765" xlink:href="#m7d36403f72" y="30.010578"/>
     <use style="fill:#0054a8;" x="114.685061" xlink:href="#m7d36403f72" y="69.459054"/>
     <use style="fill:#0054a8;" x="98.824635" xlink:href="#m7d36403f72" y="164.792871"/>
     <use style="fill:#0054a8;" x="51.243357" xlink:href="#m7d36403f72" y="269.988807"/>
     <use style="fill:#0054a8;" x="44.446031" xlink:href="#m7d36403f72" y="158.218125"/>
     <use style="fill:#0054a8;" x="53.509132" xlink:href="#m7d36403f72" y="46.447443"/>
     <use style="fill:#0054a8;" x="98.824635" xlink:href="#m7d36403f72" y="220.678212"/>
     <use style="fill:#0054a8;" x="203.050292" xlink:href="#m7d36403f72" y="112.194903"/>
     <use style="fill:#0054a8;" x="137.342813" xlink:href="#m7d36403f72" y="138.493887"/>
    </g>
   </g>
   <g id="matplotlib.axis_1">
    <g id="xtick_1">
     <g id="line2d_1">
      <defs>
       <path d="M 0 0 
L 0 3.5 
" id="mcb72a2e121" style="stroke:#000000;stroke-width:0.8;"/>
      </defs>
      <g>
       <use style="stroke:#000000;stroke-width:0.8;" x="44.446031" xlink:href="#mcb72a2e121" y="294.118125"/>
      </g>
     </g>
     <g id="text_1">
      <text style="font-family:DejaVu Sans;font-size:8.33px;font-style:normal;font-weight:normal;text-anchor:middle;" transform="rotate(-0, 44.446031, 307.447623)" x="44.446031" y="307.447623">0</text>
     </g>
    </g>
    <g id="xtick_2">
     <g id="line2d_2">
      <g>
       <use style="stroke:#000000;stroke-width:0.8;" x="89.761534" xlink:href="#mcb72a2e121" y="294.118125"/>
      </g>
     </g>
     <g id="text_2">
      <text style="font-family:DejaVu Sans;font-size:8.33px;font-style:normal;font-weight:normal;text-anchor:middle;" transform="rotate(-0, 89.761534, 307.447623)" x="89.761534" y="307.447623">20</text>
     </g>
    </g>
    <g id="xtick_3">
     <g id="line2d_3">
      <g>
       <use style="stroke:#000000;stroke-width:0.8;" x="135.077037" xlink:href="#mcb72a2e121" y="294.118125"/>
      </g>
     </g>
     <g id="text_3">
      <text style="font-family:DejaVu Sans;font-size:8.33px;font-style:normal;font-weight:normal;text-anchor:middle;" transform="rotate(-0, 135.077037, 307.447623)" x="135.077037" y="307.447623">40</text>
     </g>
    </g>
    <g id="xtick_4">
     <g id="line2d_4">
      <g>
       <use style="stroke:#000000;stroke-width:0.8;" x="180.39254" xlink:href="#mcb72a2e121" y="294.118125"/>
      </g>
     </g>
     <g id="text_4">
      <text style="font-family:DejaVu Sans;font-size:8.33px;font-style:normal;font-weight:normal;text-anchor:middle;" transform="rotate(-0, 180.39254, 307.447623)" x="180.39254" y="307.447623">60</text>
     </g>
    </g>
    <g id="xtick_5">
     <g id="line2d_5">
      <g>
       <use style="stroke:#000000;stroke-width:0.8;" x="225.708044" xlink:href="#mcb72a2e121" y="294.118125"/>
      </g>
     </g>
     <g id="text_5">
      <text style="font-family:DejaVu Sans;font-size:8.33px;font-style:normal;font-weight:normal;text-anchor:middle;" transform="rotate(-0, 225.708044, 307.447623)" x="225.708044" y="307.447623">80</text>
     </g>
    </g>
   </g>
   <g id="matplotlib.axis_2">
    <g id="ytick_1">
     <g id="line2d_6">
      <defs>
       <path d="M 0 0 
L -3.5 0 
" id="mb8a9e09822" style="stroke:#000000;stroke-width:0.8;"/>
      </defs>
      <g>
       <use style="stroke:#000000;stroke-width:0.8;" x="38.872224" xlink:href="#mb8a9e09822" y="273.27618"/>
      </g>
     </g>
     <g id="text_6">
      <text style="font-family:DejaVu Sans;font-size:8.33px;font-style:normal;font-weight:normal;text-anchor:end;" transform="rotate(-0, 31.872224, 276.440929)" x="31.872224" y="276.440929">20</text>
     </g>
    </g>
    <g id="ytick_2">
     <g id="line2d_7">
      <g>
       <use style="stroke:#000000;stroke-width:0.8;" x="38.872224" xlink:href="#mb8a9e09822" y="240.40245"/>
      </g>
     </g>
     <g id="text_7">
      <text style="font-family:DejaVu Sans;font-size:8.33px;font-style:normal;font-weight:normal;text-anchor:end;" transform="rotate(-0, 31.872224, 243.567199)" x="31.872224" y="243.567199">30</text>
     </g>
    </g>
    <g id="ytick_3">
     <g id="line2d_8">
      <g>
       <use style="stroke:#000000;stroke-width:0.8;" x="38.872224" xlink:href="#mb8a9e09822" y="207.52872"/>
      </g>
     </g>
     <g id="text_8">
      <text style="font-family:DejaVu Sans;font-size:8.33px;font-style:normal;font-weight:normal;text-anchor:end;" transform="rotate(-0, 31.872224, 210.693469)" x="31.872224" y="210.693469">40</text>
     </g>
    </g>
    <g id="ytick_4">
     <g id="line2d_9">
      <g>
       <use style="stroke:#000000;stroke-width:0.8;" x="38.872224" xlink:href="#mb8a9e09822" y="174.65499"/>
      </g>
     </g>
     <g id="text_9">
      <text style="font-family:DejaVu Sans;font-size:8.33px;font-style:normal;font-weight:normal;text-anchor:end;" transform="rotate(-0, 31.872224, 177.819739)" x="31.872224" y="177.819739">50</text>
     </g>
    </g>
    <g id="ytick_5">
     <g id="line2d_10">
      <g>
       <use style="stroke:#000000;stroke-width:0.8;" x="38.872224" xlink:href="#mb8a9e09822" y="141.78126"/>
      </g>
     </g>
     <g id="text_10">
      <text style="font-family:DejaVu Sans;font-size:8.33px;font-style:normal;font-weight:normal;text-anchor:end;" transform="rotate(-0, 31.872224, 144.946009)" x="31.872224" y="144.946009">60</text>
     </g>
    </g>
    <g id="ytick_6">
     <g id="line2d_11">
      <g>
       <use style="stroke:#000000;stroke-width:0.8;" x="38.872224" xlink:href="#mb8a9e09822" y="108.90753"/>
      </g>
     </g>
     <g id="text_11">
      <text style="font-family:DejaVu Sans;font-size:8.33px;font-style:normal;font-weight:normal;text-anchor:end;" transform="rotate(-0, 31.872224, 112.072279)" x="31.872224" y="112.072279">70</text>
     </g>
    </g>
    <g id="ytick_7">
     <g id="line2d_12">
      <g>
       <use style="stroke:#000000;stroke-width:0.8;" x="38.872224" xlink:href="#mb8a9e09822" y="76.0338"/>
      </g>
     </g>
     <g id="text_12">
      <text style="font-family:DejaVu Sans;font-size:8.33px;font-style:normal;font-weight:normal;text-anchor:end;" transform="rotate(-0, 31.872224, 79.198549)" x="31.872224" y="79.198549">80</text>
     </g>
    </g>
    <g id="ytick_8">
     <g id="line2d_13">
      <g>
       <use style="stroke:#000000;stroke-width:0.8;" x="38.872224" xlink:href="#mb8a9e09822" y="43.16007"/>
      </g>
     </g>
     <g id="text_13">
      <text style="font-family:DejaVu Sans;font-size:8.33px;font-style:normal;font-weight:normal;text-anchor:end;" transform="rotate(-0, 31.872224, 46.324819)" x="31.872224" y="46.324819">90</text>
     </g>
    </g>
   </g>
   <g id="patch_3">
    <path d="M 38.872224 294.118125 
L 38.872224 22.318125 
" style="fill:none;stroke:#000000;stroke-linecap:square;stroke-linejoin:miter;stroke-width:0.5;"/>
   </g>
   <g id="patch_4">
    <path d="M 235.813401 294.118125 
L 235.813401 22.318125 
" style="fill:none;stroke:#000000;stroke-linecap:square;stroke-linejoin:miter;stroke-width:0.5;"/>
   </g>
   <g id="patch_5">
    <path d="M 38.872224 294.118125 
L 235.813401 294.118125 
" style="fill:none;stroke:#000000;stroke-linecap:square;stroke-linejoin:miter;stroke-width:0.5;"/>
   </g>
   <g id="patch_6">
    <path d="M 38.872224 22.318125 
L 235.813401 22.318125 
" style="fill:none;stroke:#000000;stroke-linecap:square;stroke-linejoin:miter;stroke-width:0.5;"/>
   </g>
   <g id="text_14">
    <text style="font-family:DejaVu Sans;font-size:12px;font-style:normal;font-weight:normal;text-anchor:middle;" transform="rotate(-0, 137.342812, 16.318125)" x="137.342812" y="16.318125">Open Probability = 0.9 Temperature = 0.01</text>
   </g>
   <g id="PathCollection_2">
    <defs>
     <path d="M 0 6 
C 1.591219 6 3.117479 5.367802 4.242641 4.242641 
C 5.367802 3.117479 6 1.591219 6 0 
C 6 -1.591219 5.367802 -3.117479 4.242641 -4.242641 
C 3.117479 -5.367802 1.591219 -6 0 -6 
C -1.591219 -6 -3.117479 -5.367802 -4.242641 -4.242641 
C -5.367802 -3.117479 -6 -1.591219 -6 0 
C -6 1.591219 -5.367802 3.117479 -4.242641 4.242641 
C -3.117479 5.367802 -1.591219 6 0 6 
z
" id="m8ebce4a1c6"/>
    </defs>
    <g clip-path="url(#p2134847087)">
     <use style="fill:#54a800;" x="209.847617" xlink:href="#m8ebce4a1c6" y="286.425672"/>
    </g>
   </g>
   <g id="PathCollection_3">
    <defs>
     <path d="M 0 6 
C 1.591219 6 3.117479 5.367802 4.242641 4.242641 
C 5.367802 3.117479 6 1.591219 6 0 
C 6 -1.591219 5.367802 -3.117479 4.242641 -4.242641 
C 3.117479 -5.367802 1.591219 -6 0 -6 
C -1.591219 -6 -3.117479 -5.367802 -4.242641 -4.242641 
C -5.367802 -3.117479 -6 -1.591219 -6 0 
C -6 1.591219 -5.367802 3.117479 -4.242641 4.242641 
C -3.117479 5.367802 -1.591219 6 0 6 
z
" id="mb0ee54b313"/>
    </defs>
    <g clip-path="url(#p2134847087)">
     <use style="fill:#a80000;" x="53.509132" xlink:href="#mb0ee54b313" y="46.447443"/>
    </g>
   </g>
  </g>
  <g id="axes_2">
   <g id="patch_7">
    <path d="M 275.201636 294.118125 
L 472.142812 294.118125 
L 472.142812 22.318125 
L 275.201636 22.318125 
z
" style="fill:#ffffff;"/>
   </g>
   <g id="matplotlib.axis_3">
    <g id="xtick_6">
     <g id="line2d_14">
      <g>
       <use style="stroke:#000000;stroke-width:0.8;" x="275.201636" xlink:href="#mcb72a2e121" y="294.118125"/>
      </g>
     </g>
     <g id="text_15">
      <text style="font-family:DejaVu Sans;font-size:8.33px;font-style:normal;font-weight:normal;text-anchor:middle;" transform="rotate(-0, 275.201636, 307.447623)" x="275.201636" y="307.447623">0.0</text>
     </g>
    </g>
    <g id="xtick_7">
     <g id="line2d_15">
      <g>
       <use style="stroke:#000000;stroke-width:0.8;" x="314.589871" xlink:href="#mcb72a2e121" y="294.118125"/>
      </g>
     </g>
     <g id="text_16">
      <text style="font-family:DejaVu Sans;font-size:8.33px;font-style:normal;font-weight:normal;text-anchor:middle;" transform="rotate(-0, 314.589871, 307.447623)" x="314.589871" y="307.447623">0.2</text>
     </g>
    </g>
    <g id="xtick_8">
     <g id="line2d_16">
      <g>
       <use style="stroke:#000000;stroke-width:0.8;" x="353.978107" xlink:href="#mcb72a2e121" y="294.118125"/>
      </g>
     </g>
     <g id="text_17">
      <text style="font-family:DejaVu Sans;font-size:8.33px;font-style:normal;font-weight:normal;text-anchor:middle;" transform="rotate(-0, 353.978107, 307.447623)" x="353.978107" y="307.447623">0.4</text>
     </g>
    </g>
    <g id="xtick_9">
     <g id="line2d_17">
      <g>
       <use style="stroke:#000000;stroke-width:0.8;" x="393.366342" xlink:href="#mcb72a2e121" y="294.118125"/>
      </g>
     </g>
     <g id="text_18">
      <text style="font-family:DejaVu Sans;font-size:8.33px;font-style:normal;font-weight:normal;text-anchor:middle;" transform="rotate(-0, 393.366342, 307.447623)" x="393.366342" y="307.447623">0.6</text>
     </g>
    </g>
    <g id="xtick_10">
     <g id="line2d_18">
      <g>
       <use style="stroke:#000000;stroke-width:0.8;" x="432.754577" xlink:href="#mcb72a2e121" y="294.118125"/>
      </g>
     </g>
     <g id="text_19">
      <text style="font-family:DejaVu Sans;font-size:8.33px;font-style:normal;font-weight:normal;text-anchor:middle;" transform="rotate(-0, 432.754577, 307.447623)" x="432.754577" y="307.447623">0.8</text>
     </g>
    </g>
    <g id="xtick_11">
     <g id="line2d_19">
      <g>
       <use style="stroke:#000000;stroke-width:0.8;" x="472.142812" xlink:href="#mcb72a2e121" y="294.118125"/>
      </g>
     </g>
     <g id="text_20">
      <text style="font-family:DejaVu Sans;font-size:8.33px;font-style:normal;font-weight:normal;text-anchor:middle;" transform="rotate(-0, 472.142812, 307.447623)" x="472.142812" y="307.447623">1.0</text>
     </g>
    </g>
   </g>
   <g id="matplotlib.axis_4">
    <g id="ytick_9">
     <g id="line2d_20">
      <g>
       <use style="stroke:#000000;stroke-width:0.8;" x="275.201636" xlink:href="#mb8a9e09822" y="294.118125"/>
      </g>
     </g>
     <g id="text_21">
      <text style="font-family:DejaVu Sans;font-size:8.33px;font-style:normal;font-weight:normal;text-anchor:end;" transform="rotate(-0, 268.201636, 297.282874)" x="268.201636" y="297.282874">0.0</text>
     </g>
    </g>
    <g id="ytick_10">
     <g id="line2d_21">
      <g>
       <use style="stroke:#000000;stroke-width:0.8;" x="275.201636" xlink:href="#mb8a9e09822" y="239.758125"/>
      </g>
     </g>
     <g id="text_22">
      <text style="font-family:DejaVu Sans;font-size:8.33px;font-style:normal;font-weight:normal;text-anchor:end;" transform="rotate(-0, 268.201636, 242.922874)" x="268.201636" y="242.922874">0.2</text>
     </g>
    </g>
    <g id="ytick_11">
     <g id="line2d_22">
      <g>
       <use style="stroke:#000000;stroke-width:0.8;" x="275.201636" xlink:href="#mb8a9e09822" y="185.398125"/>
      </g>
     </g>
     <g id="text_23">
      <text style="font-family:DejaVu Sans;font-size:8.33px;font-style:normal;font-weight:normal;text-anchor:end;" transform="rotate(-0, 268.201636, 188.562874)" x="268.201636" y="188.562874">0.4</text>
     </g>
    </g>
    <g id="ytick_12">
     <g id="line2d_23">
      <g>
       <use style="stroke:#000000;stroke-width:0.8;" x="275.201636" xlink:href="#mb8a9e09822" y="131.038125"/>
      </g>
     </g>
     <g id="text_24">
      <text style="font-family:DejaVu Sans;font-size:8.33px;font-style:normal;font-weight:normal;text-anchor:end;" transform="rotate(-0, 268.201636, 134.202874)" x="268.201636" y="134.202874">0.6</text>
     </g>
    </g>
    <g id="ytick_13">
     <g id="line2d_24">
      <g>
       <use style="stroke:#000000;stroke-width:0.8;" x="275.201636" xlink:href="#mb8a9e09822" y="76.678125"/>
      </g>
     </g>
     <g id="text_25">
      <text style="font-family:DejaVu Sans;font-size:8.33px;font-style:normal;font-weight:normal;text-anchor:end;" transform="rotate(-0, 268.201636, 79.842874)" x="268.201636" y="79.842874">0.8</text>
     </g>
    </g>
    <g id="ytick_14">
     <g id="line2d_25">
      <g>
       <use style="stroke:#000000;stroke-width:0.8;" x="275.201636" xlink:href="#mb8a9e09822" y="22.318125"/>
      </g>
     </g>
     <g id="text_26">
      <text style="font-family:DejaVu Sans;font-size:8.33px;font-style:normal;font-weight:normal;text-anchor:end;" transform="rotate(-0, 268.201636, 25.482874)" x="268.201636" y="25.482874">1.0</text>
     </g>
    </g>
   </g>
   <g id="patch_8">
    <path d="M 275.201636 294.118125 
L 275.201636 22.318125 
" style="fill:none;stroke:#000000;stroke-linecap:square;stroke-linejoin:miter;stroke-width:0.5;"/>
   </g>
   <g id="patch_9">
    <path d="M 472.142812 294.118125 
L 472.142812 22.318125 
" style="fill:none;stroke:#000000;stroke-linecap:square;stroke-linejoin:miter;stroke-width:0.5;"/>
   </g>
   <g id="patch_10">
    <path d="M 275.201636 294.118125 
L 472.142812 294.118125 
" style="fill:none;stroke:#000000;stroke-linecap:square;stroke-linejoin:miter;stroke-width:0.5;"/>
   </g>
   <g id="patch_11">
    <path d="M 275.201636 22.318125 
L 472.142812 22.318125 
" style="fill:none;stroke:#000000;stroke-linecap:square;stroke-linejoin:miter;stroke-width:0.5;"/>
   </g>
  </g>
  <g id="axes_3">
   <g id="patch_12">
    <path d="M 511.531048 294.118125 
L 708.472224 294.118125 
L 708.472224 22.318125 
L 511.531048 22.318125 
z
" style="fill:#ffffff;"/>
   </g>
   <g id="matplotlib.axis_5">
    <g id="xtick_12">
     <g id="line2d_26">
      <g>
       <use style="stroke:#000000;stroke-width:0.8;" x="520.482919" xlink:href="#mcb72a2e121" y="294.118125"/>
      </g>
     </g>
     <g id="text_27">
      <text style="font-family:DejaVu Sans;font-size:8.33px;font-style:normal;font-weight:normal;text-anchor:middle;" transform="rotate(-0, 520.482919, 307.447623)" x="520.482919" y="307.447623">0</text>
     </g>
    </g>
    <g id="xtick_13">
     <g id="line2d_27">
      <g>
       <use style="stroke:#000000;stroke-width:0.8;" x="564.150586" xlink:href="#mcb72a2e121" y="294.118125"/>
      </g>
     </g>
     <g id="text_28">
      <text style="font-family:DejaVu Sans;font-size:8.33px;font-style:normal;font-weight:normal;text-anchor:middle;" transform="rotate(-0, 564.150586, 307.447623)" x="564.150586" y="307.447623">20</text>
     </g>
    </g>
    <g id="xtick_14">
     <g id="line2d_28">
      <g>
       <use style="stroke:#000000;stroke-width:0.8;" x="607.818253" xlink:href="#mcb72a2e121" y="294.118125"/>
      </g>
     </g>
     <g id="text_29">
      <text style="font-family:DejaVu Sans;font-size:8.33px;font-style:normal;font-weight:normal;text-anchor:middle;" transform="rotate(-0, 607.818253, 307.447623)" x="607.818253" y="307.447623">40</text>
     </g>
    </g>
    <g id="xtick_15">
     <g id="line2d_29">
      <g>
       <use style="stroke:#000000;stroke-width:0.8;" x="651.485919" xlink:href="#mcb72a2e121" y="294.118125"/>
      </g>
     </g>
     <g id="text_30">
      <text style="font-family:DejaVu Sans;font-size:8.33px;font-style:normal;font-weight:normal;text-anchor:middle;" transform="rotate(-0, 651.485919, 307.447623)" x="651.485919" y="307.447623">60</text>
     </g>
    </g>
    <g id="xtick_16">
     <g id="line2d_30">
      <g>
       <use style="stroke:#000000;stroke-width:0.8;" x="695.153586" xlink:href="#mcb72a2e121" y="294.118125"/>
      </g>
     </g>
     <g id="text_31">
      <text style="font-family:DejaVu Sans;font-size:8.33px;font-style:normal;font-weight:normal;text-anchor:middle;" transform="rotate(-0, 695.153586, 307.447623)" x="695.153586" y="307.447623">80</text>
     </g>
    </g>
   </g>
   <g id="matplotlib.axis_6">
    <g id="ytick_15">
     <g id="line2d_31">
      <g>
       <use style="stroke:#000000;stroke-width:0.8;" x="511.531048" xlink:href="#mb8a9e09822" y="269.092251"/>
      </g>
     </g>
     <g id="text_32">
      <text style="font-family:DejaVu Sans;font-size:8.33px;font-style:normal;font-weight:normal;text-anchor:end;" transform="rotate(-0, 504.531048, 272.257)" x="504.531048" y="272.257">20</text>
     </g>
    </g>
    <g id="ytick_16">
     <g id="line2d_32">
      <g>
       <use style="stroke:#000000;stroke-width:0.8;" x="511.531048" xlink:href="#mb8a9e09822" y="237.413929"/>
      </g>
     </g>
     <g id="text_33">
      <text style="font-family:DejaVu Sans;font-size:8.33px;font-style:normal;font-weight:normal;text-anchor:end;" transform="rotate(-0, 504.531048, 240.578678)" x="504.531048" y="240.578678">30</text>
     </g>
    </g>
    <g id="ytick_17">
     <g id="line2d_33">
      <g>
       <use style="stroke:#000000;stroke-width:0.8;" x="511.531048" xlink:href="#mb8a9e09822" y="205.735608"/>
      </g>
     </g>
     <g id="text_34">
      <text style="font-family:DejaVu Sans;font-size:8.33px;font-style:normal;font-weight:normal;text-anchor:end;" transform="rotate(-0, 504.531048, 208.900357)" x="504.531048" y="208.900357">40</text>
     </g>
    </g>
    <g id="ytick_18">
     <g id="line2d_34">
      <g>
       <use style="stroke:#000000;stroke-width:0.8;" x="511.531048" xlink:href="#mb8a9e09822" y="174.057286"/>
      </g>
     </g>
     <g id="text_35">
      <text style="font-family:DejaVu Sans;font-size:8.33px;font-style:normal;font-weight:normal;text-anchor:end;" transform="rotate(-0, 504.531048, 177.222035)" x="504.531048" y="177.222035">50</text>
     </g>
    </g>
    <g id="ytick_19">
     <g id="line2d_35">
      <g>
       <use style="stroke:#000000;stroke-width:0.8;" x="511.531048" xlink:href="#mb8a9e09822" y="142.378964"/>
      </g>
     </g>
     <g id="text_36">
      <text style="font-family:DejaVu Sans;font-size:8.33px;font-style:normal;font-weight:normal;text-anchor:end;" transform="rotate(-0, 504.531048, 145.543713)" x="504.531048" y="145.543713">60</text>
     </g>
    </g>
    <g id="ytick_20">
     <g id="line2d_36">
      <g>
       <use style="stroke:#000000;stroke-width:0.8;" x="511.531048" xlink:href="#mb8a9e09822" y="110.700642"/>
      </g>
     </g>
     <g id="text_37">
      <text style="font-family:DejaVu Sans;font-size:8.33px;font-style:normal;font-weight:normal;text-anchor:end;" transform="rotate(-0, 504.531048, 113.865392)" x="504.531048" y="113.865392">70</text>
     </g>
    </g>
    <g id="ytick_21">
     <g id="line2d_37">
      <g>
       <use style="stroke:#000000;stroke-width:0.8;" x="511.531048" xlink:href="#mb8a9e09822" y="79.022321"/>
      </g>
     </g>
     <g id="text_38">
      <text style="font-family:DejaVu Sans;font-size:8.33px;font-style:normal;font-weight:normal;text-anchor:end;" transform="rotate(-0, 504.531048, 82.18707)" x="504.531048" y="82.18707">80</text>
     </g>
    </g>
    <g id="ytick_22">
     <g id="line2d_38">
      <g>
       <use style="stroke:#000000;stroke-width:0.8;" x="511.531048" xlink:href="#mb8a9e09822" y="47.343999"/>
      </g>
     </g>
     <g id="text_39">
      <text style="font-family:DejaVu Sans;font-size:8.33px;font-style:normal;font-weight:normal;text-anchor:end;" transform="rotate(-0, 504.531048, 50.508748)" x="504.531048" y="50.508748">90</text>
     </g>
    </g>
   </g>
   <g id="line2d_39">
    <path clip-path="url(#p207f553af2)" d="M 644.935769 224.742601 
L 581.617653 193.064279 
" style="fill:none;"/>
   </g>
   <g id="line2d_40">
    <path clip-path="url(#p207f553af2)" d="M 644.935769 224.742601 
L 625.285319 275.427915 
" style="fill:none;"/>
   </g>
   <g id="line2d_41">
    <path clip-path="url(#p207f553af2)" d="M 644.935769 224.742601 
L 649.302536 161.385957 
" style="fill:none;"/>
   </g>
   <g id="line2d_42">
    <path clip-path="url(#p207f553af2)" d="M 644.935769 224.742601 
L 699.520353 136.0433 
" style="fill:none;"/>
   </g>
   <g id="line2d_43">
    <path clip-path="url(#p207f553af2)" d="M 644.935769 224.742601 
L 679.869903 281.76358 
" style="fill:none;stroke:#0054a8;stroke-linecap:square;stroke-width:3;"/>
   </g>
   <g id="line2d_44">
    <path clip-path="url(#p207f553af2)" d="M 644.935769 224.742601 
L 610.001636 139.211132 
" style="fill:none;stroke:#0054a8;stroke-linecap:square;stroke-width:3;"/>
   </g>
   <g id="line2d_45">
    <path clip-path="url(#p207f553af2)" d="M 638.385619 79.022321 
L 603.451486 79.022321 
" style="fill:none;"/>
   </g>
   <g id="line2d_46">
    <path clip-path="url(#p207f553af2)" d="M 638.385619 79.022321 
L 649.302536 161.385957 
" style="fill:none;"/>
   </g>
   <g id="line2d_47">
    <path clip-path="url(#p207f553af2)" d="M 638.385619 79.022321 
L 644.935769 75.854489 
" style="fill:none;"/>
   </g>
   <g id="line2d_48">
    <path clip-path="url(#p207f553af2)" d="M 638.385619 79.022321 
L 649.302536 34.67267 
" style="fill:none;"/>
   </g>
   <g id="line2d_49">
    <path clip-path="url(#p207f553af2)" d="M 638.385619 79.022321 
L 673.319753 113.868475 
" style="fill:none;"/>
   </g>
   <g id="line2d_50">
    <path clip-path="url(#p207f553af2)" d="M 638.385619 79.022321 
L 610.001636 139.211132 
" style="fill:none;"/>
   </g>
   <g id="line2d_51">
    <path clip-path="url(#p207f553af2)" d="M 575.067503 129.707635 
L 603.451486 79.022321 
" style="fill:none;"/>
   </g>
   <g id="line2d_52">
    <path clip-path="url(#p207f553af2)" d="M 575.067503 129.707635 
L 531.399836 79.022321 
" style="fill:none;"/>
   </g>
   <g id="line2d_53">
    <path clip-path="url(#p207f553af2)" d="M 575.067503 129.707635 
L 588.167803 72.686656 
" style="fill:none;"/>
   </g>
   <g id="line2d_54">
    <path clip-path="url(#p207f553af2)" d="M 575.067503 129.707635 
L 572.884119 164.553789 
" style="fill:none;"/>
   </g>
   <g id="line2d_55">
    <path clip-path="url(#p207f553af2)" d="M 575.067503 129.707635 
L 520.482919 158.218125 
" style="fill:none;"/>
   </g>
   <g id="line2d_56">
    <path clip-path="url(#p207f553af2)" d="M 575.067503 129.707635 
L 610.001636 139.211132 
" style="fill:none;"/>
   </g>
   <g id="line2d_57">
    <path clip-path="url(#p207f553af2)" d="M 581.617653 193.064279 
L 644.935769 224.742601 
" style="fill:none;"/>
   </g>
   <g id="line2d_58">
    <path clip-path="url(#p207f553af2)" d="M 581.617653 193.064279 
L 625.285319 275.427915 
" style="fill:none;"/>
   </g>
   <g id="line2d_59">
    <path clip-path="url(#p207f553af2)" d="M 581.617653 193.064279 
L 572.884119 164.553789 
" style="fill:none;"/>
   </g>
   <g id="line2d_60">
    <path clip-path="url(#p207f553af2)" d="M 581.617653 193.064279 
L 572.884119 218.406936 
" style="fill:none;"/>
   </g>
   <g id="line2d_61">
    <path clip-path="url(#p207f553af2)" d="M 581.617653 193.064279 
L 610.001636 139.211132 
" style="fill:none;"/>
   </g>
   <g id="line2d_62">
    <path clip-path="url(#p207f553af2)" d="M 603.451486 79.022321 
L 638.385619 79.022321 
" style="fill:none;"/>
   </g>
   <g id="line2d_63">
    <path clip-path="url(#p207f553af2)" d="M 603.451486 79.022321 
L 575.067503 129.707635 
" style="fill:none;"/>
   </g>
   <g id="line2d_64">
    <path clip-path="url(#p207f553af2)" d="M 603.451486 79.022321 
L 649.302536 34.67267 
" style="fill:none;"/>
   </g>
   <g id="line2d_65">
    <path clip-path="url(#p207f553af2)" d="M 603.451486 79.022321 
L 588.167803 72.686656 
" style="fill:none;stroke:#0054a8;stroke-linecap:square;stroke-width:3;"/>
   </g>
   <g id="line2d_66">
    <path clip-path="url(#p207f553af2)" d="M 603.451486 79.022321 
L 610.001636 139.211132 
" style="fill:none;stroke:#0054a8;stroke-linecap:square;stroke-width:3;"/>
   </g>
   <g id="line2d_67">
    <path clip-path="url(#p207f553af2)" d="M 625.285319 275.427915 
L 644.935769 224.742601 
" style="fill:none;"/>
   </g>
   <g id="line2d_68">
    <path clip-path="url(#p207f553af2)" d="M 625.285319 275.427915 
L 581.617653 193.064279 
" style="fill:none;"/>
   </g>
   <g id="line2d_69">
    <path clip-path="url(#p207f553af2)" d="M 625.285319 275.427915 
L 679.869903 281.76358 
" style="fill:none;"/>
   </g>
   <g id="line2d_70">
    <path clip-path="url(#p207f553af2)" d="M 625.285319 275.427915 
L 527.033069 265.924419 
" style="fill:none;"/>
   </g>
   <g id="line2d_71">
    <path clip-path="url(#p207f553af2)" d="M 625.285319 275.427915 
L 572.884119 218.406936 
" style="fill:none;"/>
   </g>
   <g id="line2d_72">
    <path clip-path="url(#p207f553af2)" d="M 649.302536 161.385957 
L 644.935769 224.742601 
" style="fill:none;"/>
   </g>
   <g id="line2d_73">
    <path clip-path="url(#p207f553af2)" d="M 649.302536 161.385957 
L 638.385619 79.022321 
" style="fill:none;"/>
   </g>
   <g id="line2d_74">
    <path clip-path="url(#p207f553af2)" d="M 649.302536 161.385957 
L 699.520353 136.0433 
" style="fill:none;"/>
   </g>
   <g id="line2d_75">
    <path clip-path="url(#p207f553af2)" d="M 649.302536 161.385957 
L 673.319753 113.868475 
" style="fill:none;"/>
   </g>
   <g id="line2d_76">
    <path clip-path="url(#p207f553af2)" d="M 649.302536 161.385957 
L 610.001636 139.211132 
" style="fill:none;"/>
   </g>
   <g id="line2d_77">
    <path clip-path="url(#p207f553af2)" d="M 699.520353 136.0433 
L 644.935769 224.742601 
" style="fill:none;"/>
   </g>
   <g id="line2d_78">
    <path clip-path="url(#p207f553af2)" d="M 699.520353 136.0433 
L 649.302536 161.385957 
" style="fill:none;"/>
   </g>
   <g id="line2d_79">
    <path clip-path="url(#p207f553af2)" d="M 699.520353 136.0433 
L 679.869903 281.76358 
" style="fill:none;"/>
   </g>
   <g id="line2d_80">
    <path clip-path="url(#p207f553af2)" d="M 699.520353 136.0433 
L 673.319753 113.868475 
" style="fill:none;"/>
   </g>
   <g id="line2d_81">
    <path clip-path="url(#p207f553af2)" d="M 679.869903 281.76358 
L 644.935769 224.742601 
" style="fill:none;stroke:#0054a8;stroke-linecap:square;stroke-width:3;"/>
   </g>
   <g id="line2d_82">
    <path clip-path="url(#p207f553af2)" d="M 679.869903 281.76358 
L 625.285319 275.427915 
" style="fill:none;"/>
   </g>
   <g id="line2d_83">
    <path clip-path="url(#p207f553af2)" d="M 679.869903 281.76358 
L 699.520353 136.0433 
" style="fill:none;"/>
   </g>
   <g id="line2d_84">
    <path clip-path="url(#p207f553af2)" d="M 531.399836 79.022321 
L 575.067503 129.707635 
" style="fill:none;"/>
   </g>
   <g id="line2d_85">
    <path clip-path="url(#p207f553af2)" d="M 531.399836 79.022321 
L 588.167803 72.686656 
" style="fill:none;"/>
   </g>
   <g id="line2d_86">
    <path clip-path="url(#p207f553af2)" d="M 531.399836 79.022321 
L 520.482919 158.218125 
" style="fill:none;"/>
   </g>
   <g id="line2d_87">
    <path clip-path="url(#p207f553af2)" d="M 531.399836 79.022321 
L 529.216453 50.511831 
" style="fill:none;"/>
   </g>
   <g id="line2d_88">
    <path clip-path="url(#p207f553af2)" d="M 644.935769 75.854489 
L 638.385619 79.022321 
" style="fill:none;"/>
   </g>
   <g id="line2d_89">
    <path clip-path="url(#p207f553af2)" d="M 644.935769 75.854489 
L 649.302536 34.67267 
" style="fill:none;"/>
   </g>
   <g id="line2d_90">
    <path clip-path="url(#p207f553af2)" d="M 644.935769 75.854489 
L 673.319753 113.868475 
" style="fill:none;"/>
   </g>
   <g id="line2d_91">
    <path clip-path="url(#p207f553af2)" d="M 649.302536 34.67267 
L 638.385619 79.022321 
" style="fill:none;"/>
   </g>
   <g id="line2d_92">
    <path clip-path="url(#p207f553af2)" d="M 649.302536 34.67267 
L 603.451486 79.022321 
" style="fill:none;"/>
   </g>
   <g id="line2d_93">
    <path clip-path="url(#p207f553af2)" d="M 649.302536 34.67267 
L 644.935769 75.854489 
" style="fill:none;"/>
   </g>
   <g id="line2d_94">
    <path clip-path="url(#p207f553af2)" d="M 649.302536 34.67267 
L 588.167803 72.686656 
" style="fill:none;"/>
   </g>
   <g id="line2d_95">
    <path clip-path="url(#p207f553af2)" d="M 588.167803 72.686656 
L 575.067503 129.707635 
" style="fill:none;"/>
   </g>
   <g id="line2d_96">
    <path clip-path="url(#p207f553af2)" d="M 588.167803 72.686656 
L 603.451486 79.022321 
" style="fill:none;stroke:#0054a8;stroke-linecap:square;stroke-width:3;"/>
   </g>
   <g id="line2d_97">
    <path clip-path="url(#p207f553af2)" d="M 588.167803 72.686656 
L 531.399836 79.022321 
" style="fill:none;"/>
   </g>
   <g id="line2d_98">
    <path clip-path="url(#p207f553af2)" d="M 588.167803 72.686656 
L 649.302536 34.67267 
" style="fill:none;"/>
   </g>
   <g id="line2d_99">
    <path clip-path="url(#p207f553af2)" d="M 588.167803 72.686656 
L 529.216453 50.511831 
" style="fill:none;stroke:#0054a8;stroke-linecap:square;stroke-width:3;"/>
   </g>
   <g id="line2d_100">
    <path clip-path="url(#p207f553af2)" d="M 572.884119 164.553789 
L 575.067503 129.707635 
" style="fill:none;"/>
   </g>
   <g id="line2d_101">
    <path clip-path="url(#p207f553af2)" d="M 572.884119 164.553789 
L 581.617653 193.064279 
" style="fill:none;"/>
   </g>
   <g id="line2d_102">
    <path clip-path="url(#p207f553af2)" d="M 572.884119 164.553789 
L 520.482919 158.218125 
" style="fill:none;"/>
   </g>
   <g id="line2d_103">
    <path clip-path="url(#p207f553af2)" d="M 572.884119 164.553789 
L 572.884119 218.406936 
" style="fill:none;"/>
   </g>
   <g id="line2d_104">
    <path clip-path="url(#p207f553af2)" d="M 572.884119 164.553789 
L 610.001636 139.211132 
" style="fill:none;"/>
   </g>
   <g id="line2d_105">
    <path clip-path="url(#p207f553af2)" d="M 527.033069 265.924419 
L 625.285319 275.427915 
" style="fill:none;"/>
   </g>
   <g id="line2d_106">
    <path clip-path="url(#p207f553af2)" d="M 527.033069 265.924419 
L 520.482919 158.218125 
" style="fill:none;"/>
   </g>
   <g id="line2d_107">
    <path clip-path="url(#p207f553af2)" d="M 527.033069 265.924419 
L 572.884119 218.406936 
" style="fill:none;"/>
   </g>
   <g id="line2d_108">
    <path clip-path="url(#p207f553af2)" d="M 520.482919 158.218125 
L 575.067503 129.707635 
" style="fill:none;"/>
   </g>
   <g id="line2d_109">
    <path clip-path="url(#p207f553af2)" d="M 520.482919 158.218125 
L 531.399836 79.022321 
" style="fill:none;"/>
   </g>
   <g id="line2d_110">
    <path clip-path="url(#p207f553af2)" d="M 520.482919 158.218125 
L 572.884119 164.553789 
" style="fill:none;"/>
   </g>
   <g id="line2d_111">
    <path clip-path="url(#p207f553af2)" d="M 520.482919 158.218125 
L 527.033069 265.924419 
" style="fill:none;"/>
   </g>
   <g id="line2d_112">
    <path clip-path="url(#p207f553af2)" d="M 520.482919 158.218125 
L 572.884119 218.406936 
" style="fill:none;"/>
   </g>
   <g id="line2d_113">
    <path clip-path="url(#p207f553af2)" d="M 529.216453 50.511831 
L 531.399836 79.022321 
" style="fill:none;"/>
   </g>
   <g id="line2d_114">
    <path clip-path="url(#p207f553af2)" d="M 529.216453 50.511831 
L 588.167803 72.686656 
" style="fill:none;stroke:#0054a8;stroke-linecap:square;stroke-width:3;"/>
   </g>
   <g id="line2d_115">
    <path clip-path="url(#p207f553af2)" d="M 572.884119 218.406936 
L 581.617653 193.064279 
" style="fill:none;"/>
   </g>
   <g id="line2d_116">
    <path clip-path="url(#p207f553af2)" d="M 572.884119 218.406936 
L 625.285319 275.427915 
" style="fill:none;"/>
   </g>
   <g id="line2d_117">
    <path clip-path="url(#p207f553af2)" d="M 572.884119 218.406936 
L 572.884119 164.553789 
" style="fill:none;"/>
   </g>
   <g id="line2d_118">
    <path clip-path="url(#p207f553af2)" d="M 572.884119 218.406936 
L 527.033069 265.924419 
" style="fill:none;"/>
   </g>
   <g id="line2d_119">
    <path clip-path="url(#p207f553af2)" d="M 572.884119 218.406936 
L 520.482919 158.218125 
" style="fill:none;"/>
   </g>
   <g id="line2d_120">
    <path clip-path="url(#p207f553af2)" d="M 673.319753 113.868475 
L 638.385619 79.022321 
" style="fill:none;"/>
   </g>
   <g id="line2d_121">
    <path clip-path="url(#p207f553af2)" d="M 673.319753 113.868475 
L 649.302536 161.385957 
" style="fill:none;"/>
   </g>
   <g id="line2d_122">
    <path clip-path="url(#p207f553af2)" d="M 673.319753 113.868475 
L 699.520353 136.0433 
" style="fill:none;"/>
   </g>
   <g id="line2d_123">
    <path clip-path="url(#p207f553af2)" d="M 673.319753 113.868475 
L 644.935769 75.854489 
" style="fill:none;"/>
   </g>
   <g id="line2d_124">
    <path clip-path="url(#p207f553af2)" d="M 610.001636 139.211132 
L 644.935769 224.742601 
" style="fill:none;stroke:#0054a8;stroke-linecap:square;stroke-width:3;"/>
   </g>
   <g id="line2d_125">
    <path clip-path="url(#p207f553af2)" d="M 610.001636 139.211132 
L 638.385619 79.022321 
" style="fill:none;"/>
   </g>
   <g id="line2d_126">
    <path clip-path="url(#p207f553af2)" d="M 610.001636 139.211132 
L 575.067503 129.707635 
" style="fill:none;"/>
   </g>
   <g id="line2d_127">
    <path clip-path="url(#p207f553af2)" d="M 610.001636 139.211132 
L 581.617653 193.064279 
" style="fill:none;"/>
   </g>
   <g id="line2d_128">
    <path clip-path="url(#p207f553af2)" d="M 610.001636 139.211132 
L 603.451486 79.022321 
" style="fill:none;stroke:#0054a8;stroke-linecap:square;stroke-width:3;"/>
   </g>
   <g id="line2d_129">
    <path clip-path="url(#p207f553af2)" d="M 610.001636 139.211132 
L 649.302536 161.385957 
" style="fill:none;"/>
   </g>
   <g id="line2d_130">
    <path clip-path="url(#p207f553af2)" d="M 610.001636 139.211132 
L 572.884119 164.553789 
" style="fill:none;"/>
   </g>
   <g id="patch_13">
    <path d="M 511.531048 294.118125 
L 511.531048 22.318125 
" style="fill:none;stroke:#000000;stroke-linecap:square;stroke-linejoin:miter;stroke-width:0.5;"/>
   </g>
   <g id="patch_14">
    <path d="M 708.472224 294.118125 
L 708.472224 22.318125 
" style="fill:none;stroke:#000000;stroke-linecap:square;stroke-linejoin:miter;stroke-width:0.5;"/>
   </g>
   <g id="patch_15">
    <path d="M 511.531048 294.118125 
L 708.472224 294.118125 
" style="fill:none;stroke:#000000;stroke-linecap:square;stroke-linejoin:miter;stroke-width:0.5;"/>
   </g>
   <g id="patch_16">
    <path d="M 511.531048 22.318125 
L 708.472224 22.318125 
" style="fill:none;stroke:#000000;stroke-linecap:square;stroke-linejoin:miter;stroke-width:0.5;"/>
   </g>
  </g>
 </g>
 <defs>
  <clipPath id="p2134847087">
   <rect height="271.8" width="196.941176" x="38.872224" y="22.318125"/>
  </clipPath>
  <clipPath id="p207f553af2">
   <rect height="271.8" width="196.941176" x="511.531048" y="22.318125"/>
  </clipPath>
 </defs>
</svg>
