p 20 46
e 9 4 1.0 31
e 9 6 1.0 18
e 9 7 1.0 20
e 9 8 1.0 38
e 9 1 1.0 24
e 9 17 1.0 31
e 2 5 1.0 16
e 2 7 1.0 26
e 2 11 1.0 3
e 2 12 1.0 15
e 2 19 1.0 19
e 2 17 1.0 23
e 3 5 1.0 21
e 3 10 1.0 26
e 3 13 1.0 19
e 3 14 1.0 11
e 3 16 1.0 27
e 3 17 1.0 16
e 4 6 1.0 33
e 4 14 1.0 10
e 4 18 1.0 9
e 4 17 1.0 21
e 5 12 1.0 25
e 5 13 1.0 7
e 5 17 1.0 19
e 6 1 1.0 25
e 6 15 1.0 45
e 6 18 1.0 30
e 7 8 1.0 24
e 7 19 1.0 19
e 7 17 1.0 19
e 8 1 1.0 47
e 8 19 1.0 14
e 10 13 1.0 26
e 10 16 1.0 25
e 10 20 1.0 9
e 11 12 1.0 13
e 11 19 1.0 18
e 12 13 1.0 30
e 13 20 1.0 28
e 14 16 1.0 24
e 14 18 1.0 17
e 14 17 1.0 19
e 15 16 1.0 34
e 15 18 1.0 26
e 16 18 1.0 31
