p 20 46
e 9 4 0.0 31
e 9 6 0.0 18
e 9 7 0.0 20
e 9 8 0.0 38
e 9 1 0.0 24
e 9 17 0.0 31
e 2 5 0.0 16
e 2 7 0.0 26
e 2 11 0.0 3
e 2 12 0.0 15
e 2 19 0.0 19
e 2 17 0.0 23
e 3 5 0.0 21
e 3 10 0.0 26
e 3 13 0.0 19
e 3 14 0.0 11
e 3 16 0.0 27
e 3 17 0.0 16
e 4 6 0.0 33
e 4 14 0.0 10
e 4 18 0.0 9
e 4 17 0.0 21
e 5 12 0.0 25
e 5 13 0.0 7
e 5 17 0.0 19
e 6 1 0.0 25
e 6 15 0.0 45
e 6 18 0.0 30
e 7 8 0.0 24
e 7 19 0.0 19
e 7 17 0.0 19
e 8 1 0.0 47
e 8 19 0.0 14
e 10 13 0.0 26
e 10 16 0.0 25
e 10 20 0.0 9
e 11 12 0.0 13
e 11 19 0.0 18
e 12 13 0.0 30
e 13 20 0.0 28
e 14 16 0.0 24
e 14 18 0.0 17
e 14 17 0.0 19
e 15 16 0.0 34
e 15 18 0.0 26
e 16 18 0.0 31
