p 20 45
e 1 10 0.80 42
e 1 14 0.80 29
e 1 15 0.80 42
e 1 18 0.80 39
e 2 4 0.80 4
e 2 7 0.80 9
e 2 13 0.80 18
e 2 19 0.80 19
e 3 10 0.80 15
e 3 11 0.80 35
e 3 17 0.80 14
e 3 12 0.80 38
e 4 7 0.80 7
e 4 19 0.80 23
e 5 9 0.80 9
e 5 10 0.80 11
e 5 14 0.80 14
e 5 17 0.80 10
e 5 18 0.80 33
e 6 13 0.80 27
e 6 15 0.80 46
e 6 19 0.80 6
e 7 13 0.80 14
e 7 16 0.80 26
e 8 9 0.80 27
e 8 13 0.80 30
e 8 16 0.80 27
e 8 17 0.80 30
e 8 18 0.80 50
e 8 12 0.80 28
e 9 17 0.80 5
e 9 18 0.80 38
e 10 14 0.80 21
e 10 17 0.80 11
e 11 12 0.80 22
e 20 16 0.80 7
e 20 12 0.80 39
e 13 15 0.80 46
e 13 16 0.80 30
e 13 18 0.80 46
e 13 19 0.80 27
e 14 18 0.80 24
e 15 18 0.80 6
e 16 12 0.80 38
e 17 12 0.80 41
