p 20 45
e 1 10 0.10 42
e 1 14 0.10 29
e 1 15 0.10 42
e 1 18 0.10 39
e 2 4 0.10 4
e 2 7 0.10 9
e 2 13 0.10 18
e 2 19 0.10 19
e 3 10 0.10 15
e 3 11 0.10 35
e 3 17 0.10 14
e 3 12 0.10 38
e 4 7 0.10 7
e 4 19 0.10 23
e 5 9 0.10 9
e 5 10 0.10 11
e 5 14 0.10 14
e 5 17 0.10 10
e 5 18 0.10 33
e 6 13 0.10 27
e 6 15 0.10 46
e 6 19 0.10 6
e 7 13 0.10 14
e 7 16 0.10 26
e 8 9 0.10 27
e 8 13 0.10 30
e 8 16 0.10 27
e 8 17 0.10 30
e 8 18 0.10 50
e 8 12 0.10 28
e 9 17 0.10 5
e 9 18 0.10 38
e 10 14 0.10 21
e 10 17 0.10 11
e 11 12 0.10 22
e 20 16 0.10 7
e 20 12 0.10 39
e 13 15 0.10 46
e 13 16 0.10 30
e 13 18 0.10 46
e 13 19 0.10 27
e 14 18 0.10 24
e 15 18 0.10 6
e 16 12 0.10 38
e 17 12 0.10 41
