p 20 45
e 1 10 0.70 42
e 1 14 0.70 29
e 1 15 0.70 42
e 1 18 0.70 39
e 2 4 0.70 4
e 2 7 0.70 9
e 2 13 0.70 18
e 2 19 0.70 19
e 3 10 0.70 15
e 3 11 0.70 35
e 3 17 0.70 14
e 3 12 0.70 38
e 4 7 0.70 7
e 4 19 0.70 23
e 5 9 0.70 9
e 5 10 0.70 11
e 5 14 0.70 14
e 5 17 0.70 10
e 5 18 0.70 33
e 6 13 0.70 27
e 6 15 0.70 46
e 6 19 0.70 6
e 7 13 0.70 14
e 7 16 0.70 26
e 8 9 0.70 27
e 8 13 0.70 30
e 8 16 0.70 27
e 8 17 0.70 30
e 8 18 0.70 50
e 8 12 0.70 28
e 9 17 0.70 5
e 9 18 0.70 38
e 10 14 0.70 21
e 10 17 0.70 11
e 11 12 0.70 22
e 20 16 0.70 7
e 20 12 0.70 39
e 13 15 0.70 46
e 13 16 0.70 30
e 13 18 0.70 46
e 13 19 0.70 27
e 14 18 0.70 24
e 15 18 0.70 6
e 16 12 0.70 38
e 17 12 0.70 41
