p 20 46
e 11 2 0.60 21
e 11 5 0.60 19
e 11 8 0.60 9
e 11 10 0.60 27
e 11 15 0.60 24
e 2 4 0.60 19
e 2 8 0.60 15
e 2 1 0.60 59
e 2 13 0.60 58
e 2 15 0.60 29
e 2 18 0.60 21
e 3 7 0.60 10
e 3 9 0.60 20
e 3 14 0.60 6
e 3 17 0.60 9
e 4 7 0.60 18
e 4 13 0.60 53
e 4 18 0.60 22
e 4 19 0.60 41
e 4 12 0.60 15
e 5 10 0.60 10
e 5 15 0.60 26
e 5 16 0.60 9
e 6 13 0.60 15
e 6 19 0.60 23
e 7 9 0.60 13
e 7 17 0.60 13
e 7 18 0.60 17
e 7 12 0.60 9
e 8 10 0.60 35
e 8 1 0.60 56
e 9 20 0.60 36
e 9 14 0.60 23
e 9 19 0.60 44
e 9 12 0.60 8
e 10 16 0.60 5
e 1 13 0.60 28
e 20 14 0.60 27
e 13 19 0.60 36
e 14 15 0.60 38
e 14 17 0.60 14
e 15 16 0.60 33
e 15 17 0.60 27
e 15 18 0.60 23
e 17 18 0.60 6
e 19 12 0.60 42
