p 20 44
e 1 6 1.0 10
e 1 15 1.0 9
e 2 3 1.0 21
e 2 7 1.0 23
e 3 4 1.0 8
e 3 7 1.0 12
e 3 9 1.0 40
e 3 16 1.0 17
e 4 7 1.0 14
e 4 16 1.0 9
e 4 18 1.0 14
e 5 14 1.0 44
e 5 19 1.0 38
e 5 12 1.0 13
e 6 9 1.0 22
e 6 15 1.0 7
e 7 20 1.0 29
e 7 18 1.0 7
e 8 13 1.0 17
e 8 14 1.0 23
e 8 15 1.0 45
e 8 17 1.0 22
e 8 19 1.0 4
e 9 13 1.0 47
e 9 15 1.0 27
e 9 16 1.0 26
e 10 11 1.0 22
e 10 17 1.0 20
e 10 12 1.0 25
e 11 20 1.0 7
e 11 17 1.0 35
e 11 18 1.0 31
e 20 18 1.0 30
e 13 15 1.0 49
e 13 16 1.0 32
e 13 17 1.0 13
e 13 18 1.0 29
e 14 15 1.0 48
e 14 19 1.0 19
e 16 18 1.0 19
e 17 18 1.0 33
e 17 19 1.0 24
e 17 12 1.0 29
e 19 12 1.0 39
