p 20 45
e 8 2 0.80 23
e 8 3 0.80 48
e 8 10 0.80 28
e 8 13 0.80 47
e 8 14 0.80 6
e 8 16 0.80 3
e 2 4 0.80 10
e 2 10 0.80 6
e 2 14 0.80 20
e 3 5 0.80 39
e 3 7 0.80 23
e 3 9 0.80 15
e 3 10 0.80 37
e 3 13 0.80 17
e 3 17 0.80 26
e 3 18 0.80 20
e 4 10 0.80 13
e 4 11 0.80 20
e 4 14 0.80 24
e 5 10 0.80 22
e 5 11 0.80 25
e 5 12 0.80 35
e 5 17 0.80 29
e 5 20 0.80 31
e 6 9 0.80 16
e 6 13 0.80 20
e 6 15 0.80 4
e 6 19 0.80 9
e 7 17 0.80 27
e 7 18 0.80 14
e 7 19 0.80 13
e 1 14 0.80 24
e 1 16 0.80 18
e 9 13 0.80 5
e 9 15 0.80 14
e 9 18 0.80 14
e 10 11 0.80 26
e 11 12 0.80 34
e 12 20 0.80 13
e 13 16 0.80 46
e 14 16 0.80 9
e 15 18 0.80 4
e 15 19 0.80 7
e 17 20 0.80 45
e 18 19 0.80 6
