p 20 45
e 8 2 1.0 23
e 8 3 1.0 48
e 8 10 1.0 28
e 8 13 1.0 47
e 8 14 1.0 6
e 8 16 1.0 3
e 2 4 1.0 10
e 2 10 1.0 6
e 2 14 1.0 20
e 3 5 1.0 39
e 3 7 1.0 23
e 3 9 1.0 15
e 3 10 1.0 37
e 3 13 1.0 17
e 3 17 1.0 26
e 3 18 1.0 20
e 4 10 1.0 13
e 4 11 1.0 20
e 4 14 1.0 24
e 5 10 1.0 22
e 5 11 1.0 25
e 5 12 1.0 35
e 5 17 1.0 29
e 5 20 1.0 31
e 6 9 1.0 16
e 6 13 1.0 20
e 6 15 1.0 4
e 6 19 1.0 9
e 7 17 1.0 27
e 7 18 1.0 14
e 7 19 1.0 13
e 1 14 1.0 24
e 1 16 1.0 18
e 9 13 1.0 5
e 9 15 1.0 14
e 9 18 1.0 14
e 10 11 1.0 26
e 11 12 1.0 34
e 12 20 1.0 13
e 13 16 1.0 46
e 14 16 1.0 9
e 15 18 1.0 4
e 15 19 1.0 7
e 17 20 1.0 45
e 18 19 1.0 6
