p 50 131
e 16 9 0.10 11
e 16 50 0.10 17
e 16 27 0.10 18
e 16 38 0.10 18
e 16 40 0.10 30
e 2 6 0.10 20
e 2 11 0.10 8
e 2 24 0.10 11
e 2 25 0.10 11
e 2 31 0.10 18
e 2 41 0.10 10
e 2 49 0.10 13
e 3 4 0.10 6
e 3 9 0.10 11
e 3 37 0.10 4
e 3 45 0.10 1
e 3 48 0.10 11
e 4 5 0.10 12
e 4 29 0.10 15
e 4 35 0.10 11
e 4 45 0.10 5
e 4 47 0.10 13
e 4 48 0.10 11
e 5 13 0.10 15
e 5 35 0.10 9
e 5 47 0.10 4
e 6 15 0.10 19
e 6 20 0.10 13
e 6 22 0.10 24
e 6 23 0.10 27
e 6 25 0.10 13
e 6 31 0.10 27
e 6 39 0.10 15
e 7 8 0.10 24
e 7 26 0.10 13
e 7 32 0.10 14
e 7 36 0.10 18
e 7 43 0.10 15
e 7 46 0.10 7
e 8 10 0.10 20
e 8 18 0.10 27
e 8 23 0.10 27
e 8 36 0.10 11
e 8 43 0.10 27
e 9 37 0.10 11
e 9 38 0.10 14
e 9 40 0.10 21
e 9 45 0.10 11
e 10 17 0.10 4
e 10 18 0.10 23
e 10 23 0.10 31
e 10 27 0.10 21
e 11 24 0.10 9
e 11 49 0.10 9
e 12 13 0.10 9
e 12 34 0.10 17
e 12 44 0.10 18
e 13 22 0.10 26
e 13 30 0.10 22
e 13 34 0.10 21
e 13 35 0.10 17
e 13 42 0.10 24
e 13 44 0.10 23
e 13 47 0.10 17
e 14 21 0.10 4
e 14 39 0.10 1
e 14 43 0.10 26
e 14 46 0.10 30
e 15 22 0.10 17
e 15 23 0.10 13
e 15 33 0.10 19
e 1 20 0.10 7
e 1 21 0.10 18
e 1 25 0.10 12
e 1 49 0.10 13
e 17 23 0.10 32
e 17 27 0.10 22
e 17 38 0.10 9
e 17 48 0.10 12
e 18 50 0.10 29
e 18 27 0.10 9
e 18 36 0.10 34
e 50 27 0.10 22
e 20 21 0.10 13
e 20 25 0.10 12
e 20 39 0.10 11
e 21 26 0.10 39
e 21 39 0.10 5
e 21 46 0.10 33
e 22 31 0.10 12
e 22 33 0.10 14
e 22 42 0.10 14
e 22 47 0.10 21
e 23 33 0.10 27
e 23 39 0.10 29
e 23 43 0.10 9
e 23 48 0.10 32
e 24 41 0.10 10
e 24 19 0.10 5
e 25 49 0.10 9
e 26 32 0.10 20
e 26 46 0.10 11
e 27 38 0.10 23
e 28 30 0.10 16
e 28 41 0.10 7
e 28 44 0.10 29
e 28 19 0.10 5
e 29 33 0.10 5
e 29 47 0.10 8
e 29 48 0.10 12
e 30 41 0.10 15
e 30 42 0.10 5
e 30 44 0.10 23
e 31 41 0.10 13
e 31 42 0.10 3
e 32 36 0.10 10
e 33 47 0.10 11
e 33 48 0.10 17
e 34 35 0.10 20
e 34 40 0.10 19
e 35 40 0.10 18
e 35 45 0.10 15
e 37 38 0.10 5
e 37 48 0.10 10
e 38 48 0.10 9
e 39 43 0.10 27
e 40 45 0.10 22
e 41 42 0.10 13
e 41 19 0.10 8
e 43 46 0.10 13
e 44 19 0.10 34
