p 50 132
e 18 3 0.40 12
e 18 4 0.40 19
e 18 14 0.40 26
e 18 17 0.40 22
e 18 20 0.40 11
e 18 40 0.40 19
e 18 41 0.40 11
e 18 34 0.40 14
e 2 6 0.40 5
e 2 10 0.40 23
e 2 12 0.40 8
e 2 23 0.40 6
e 2 29 0.40 8
e 2 37 0.40 16
e 2 45 0.40 9
e 3 10 0.40 6
e 3 20 0.40 3
e 3 34 0.40 5
e 4 14 0.40 35
e 4 47 0.40 39
e 4 34 0.40 11
e 5 16 0.40 13
e 5 50 0.40 8
e 5 47 0.40 9
e 6 21 0.40 26
e 6 29 0.40 11
e 6 37 0.40 12
e 6 40 0.40 24
e 6 41 0.40 15
e 7 27 0.40 12
e 7 31 0.40 12
e 7 32 0.40 7
e 7 36 0.40 18
e 7 39 0.40 9
e 7 49 0.40 19
e 8 14 0.40 34
e 8 16 0.40 14
e 8 28 0.40 21
e 8 50 0.40 17
e 9 14 0.40 16
e 9 17 0.40 6
e 9 21 0.40 12
e 9 22 0.40 8
e 9 40 0.40 13
e 9 48 0.40 27
e 10 20 0.40 5
e 10 37 0.40 9
e 10 34 0.40 10
e 11 19 0.40 16
e 11 25 0.40 17
e 11 28 0.40 28
e 11 33 0.40 19
e 12 23 0.40 3
e 12 29 0.40 6
e 12 45 0.40 2
e 12 46 0.40 31
e 13 22 0.40 17
e 13 35 0.40 9
e 13 39 0.40 14
e 13 48 0.40 16
e 13 49 0.40 16
e 14 16 0.40 24
e 14 17 0.40 12
e 14 28 0.40 40
e 14 47 0.40 27
e 14 48 0.40 34
e 15 26 0.40 5
e 15 27 0.40 9
e 15 36 0.40 2
e 15 38 0.40 11
e 15 43 0.40 9
e 16 50 0.40 15
e 16 47 0.40 10
e 17 40 0.40 13
e 1 26 0.40 12
e 1 38 0.40 18
e 1 45 0.40 45
e 1 46 0.40 13
e 19 25 0.40 24
e 19 30 0.40 13
e 20 37 0.40 9
e 20 41 0.40 14
e 21 22 0.40 14
e 21 29 0.40 30
e 21 40 0.40 5
e 21 42 0.40 9
e 22 42 0.40 13
e 22 48 0.40 22
e 22 49 0.40 21
e 23 29 0.40 4
e 24 25 0.40 14
e 24 30 0.40 15
e 24 35 0.40 14
e 24 44 0.40 21
e 25 30 0.40 23
e 25 33 0.40 18
e 25 35 0.40 19
e 25 48 0.40 14
e 26 36 0.40 6
e 26 38 0.40 12
e 26 46 0.40 19
e 27 31 0.40 10
e 27 36 0.40 10
e 27 43 0.40 1
e 28 33 0.40 10
e 28 50 0.40 38
e 28 48 0.40 30
e 29 42 0.40 31
e 29 46 0.40 28
e 30 31 0.40 45
e 30 44 0.40 28
e 31 32 0.40 16
e 31 38 0.40 16
e 31 43 0.40 10
e 31 44 0.40 19
e 32 39 0.40 9
e 32 44 0.40 4
e 33 48 0.40 23
e 35 39 0.40 17
e 35 44 0.40 19
e 35 48 0.40 13
e 36 46 0.40 23
e 36 49 0.40 19
e 37 41 0.40 10
e 38 43 0.40 9
e 39 44 0.40 11
e 39 49 0.40 14
e 40 41 0.40 13
e 42 46 0.40 35
e 42 49 0.40 16
e 45 46 0.40 32
e 46 49 0.40 32
