p 50 132
e 18 3 0.20 12
e 18 4 0.20 19
e 18 14 0.20 26
e 18 17 0.20 22
e 18 20 0.20 11
e 18 40 0.20 19
e 18 41 0.20 11
e 18 34 0.20 14
e 2 6 0.20 5
e 2 10 0.20 23
e 2 12 0.20 8
e 2 23 0.20 6
e 2 29 0.20 8
e 2 37 0.20 16
e 2 45 0.20 9
e 3 10 0.20 6
e 3 20 0.20 3
e 3 34 0.20 5
e 4 14 0.20 35
e 4 47 0.20 39
e 4 34 0.20 11
e 5 16 0.20 13
e 5 50 0.20 8
e 5 47 0.20 9
e 6 21 0.20 26
e 6 29 0.20 11
e 6 37 0.20 12
e 6 40 0.20 24
e 6 41 0.20 15
e 7 27 0.20 12
e 7 31 0.20 12
e 7 32 0.20 7
e 7 36 0.20 18
e 7 39 0.20 9
e 7 49 0.20 19
e 8 14 0.20 34
e 8 16 0.20 14
e 8 28 0.20 21
e 8 50 0.20 17
e 9 14 0.20 16
e 9 17 0.20 6
e 9 21 0.20 12
e 9 22 0.20 8
e 9 40 0.20 13
e 9 48 0.20 27
e 10 20 0.20 5
e 10 37 0.20 9
e 10 34 0.20 10
e 11 19 0.20 16
e 11 25 0.20 17
e 11 28 0.20 28
e 11 33 0.20 19
e 12 23 0.20 3
e 12 29 0.20 6
e 12 45 0.20 2
e 12 46 0.20 31
e 13 22 0.20 17
e 13 35 0.20 9
e 13 39 0.20 14
e 13 48 0.20 16
e 13 49 0.20 16
e 14 16 0.20 24
e 14 17 0.20 12
e 14 28 0.20 40
e 14 47 0.20 27
e 14 48 0.20 34
e 15 26 0.20 5
e 15 27 0.20 9
e 15 36 0.20 2
e 15 38 0.20 11
e 15 43 0.20 9
e 16 50 0.20 15
e 16 47 0.20 10
e 17 40 0.20 13
e 1 26 0.20 12
e 1 38 0.20 18
e 1 45 0.20 45
e 1 46 0.20 13
e 19 25 0.20 24
e 19 30 0.20 13
e 20 37 0.20 9
e 20 41 0.20 14
e 21 22 0.20 14
e 21 29 0.20 30
e 21 40 0.20 5
e 21 42 0.20 9
e 22 42 0.20 13
e 22 48 0.20 22
e 22 49 0.20 21
e 23 29 0.20 4
e 24 25 0.20 14
e 24 30 0.20 15
e 24 35 0.20 14
e 24 44 0.20 21
e 25 30 0.20 23
e 25 33 0.20 18
e 25 35 0.20 19
e 25 48 0.20 14
e 26 36 0.20 6
e 26 38 0.20 12
e 26 46 0.20 19
e 27 31 0.20 10
e 27 36 0.20 10
e 27 43 0.20 1
e 28 33 0.20 10
e 28 50 0.20 38
e 28 48 0.20 30
e 29 42 0.20 31
e 29 46 0.20 28
e 30 31 0.20 45
e 30 44 0.20 28
e 31 32 0.20 16
e 31 38 0.20 16
e 31 43 0.20 10
e 31 44 0.20 19
e 32 39 0.20 9
e 32 44 0.20 4
e 33 48 0.20 23
e 35 39 0.20 17
e 35 44 0.20 19
e 35 48 0.20 13
e 36 46 0.20 23
e 36 49 0.20 19
e 37 41 0.20 10
e 38 43 0.20 9
e 39 44 0.20 11
e 39 49 0.20 14
e 40 41 0.20 13
e 42 46 0.20 35
e 42 49 0.20 16
e 45 46 0.20 32
e 46 49 0.20 32
