p 50 128
e 21 3 1.0 26
e 21 4 1.0 18
e 21 28 1.0 26
e 21 42 1.0 25
e 21 44 1.0 6
e 21 48 1.0 4
e 21 47 1.0 22
e 2 12 1.0 15
e 2 30 1.0 16
e 2 32 1.0 23
e 2 37 1.0 18
e 2 39 1.0 9
e 2 41 1.0 14
e 2 45 1.0 14
e 2 49 1.0 17
e 3 22 1.0 12
e 3 32 1.0 13
e 3 37 1.0 12
e 3 42 1.0 17
e 3 44 1.0 24
e 4 23 1.0 15
e 4 34 1.0 7
e 4 47 1.0 7
e 5 8 1.0 14
e 5 10 1.0 20
e 5 11 1.0 17
e 5 25 1.0 17
e 5 29 1.0 20
e 5 35 1.0 27
e 6 15 1.0 13
e 6 19 1.0 10
e 6 29 1.0 25
e 6 31 1.0 16
e 6 40 1.0 12
e 7 14 1.0 9
e 7 18 1.0 4
e 7 26 1.0 17
e 7 33 1.0 15
e 8 10 1.0 22
e 8 22 1.0 8
e 8 32 1.0 9
e 8 35 1.0 30
e 8 42 1.0 14
e 9 30 1.0 1
e 9 38 1.0 10
e 9 41 1.0 12
e 9 49 1.0 9
e 10 11 1.0 23
e 10 20 1.0 27
e 10 24 1.0 17
e 10 27 1.0 14
e 10 28 1.0 14
e 10 42 1.0 17
e 11 13 1.0 15
e 11 20 1.0 13
e 11 25 1.0 5
e 12 14 1.0 22
e 12 18 1.0 19
e 12 26 1.0 15
e 12 32 1.0 28
e 12 35 1.0 19
e 12 41 1.0 13
e 13 15 1.0 37
e 13 20 1.0 9
e 13 25 1.0 16
e 13 29 1.0 21
e 13 36 1.0 13
e 14 18 1.0 6
e 14 19 1.0 48
e 14 31 1.0 32
e 14 35 1.0 24
e 15 19 1.0 14
e 15 29 1.0 32
e 15 36 1.0 49
e 16 1 1.0 8
e 16 24 1.0 23
e 16 36 1.0 26
e 16 43 1.0 33
e 17 38 1.0 5
e 17 50 1.0 4
e 17 49 1.0 24
e 18 26 1.0 18
e 19 31 1.0 24
e 20 24 1.0 29
e 20 36 1.0 9
e 1 36 1.0 32
e 22 32 1.0 11
e 22 42 1.0 8
e 23 34 1.0 8
e 23 43 1.0 6
e 23 47 1.0 10
e 24 27 1.0 5
e 24 36 1.0 31
e 24 43 1.0 15
e 25 29 1.0 9
e 26 33 1.0 5
e 26 38 1.0 14
e 26 41 1.0 5
e 27 28 1.0 22
e 27 43 1.0 13
e 27 47 1.0 21
e 28 42 1.0 4
e 28 47 1.0 22
e 29 31 1.0 22
e 29 35 1.0 28
e 29 40 1.0 17
e 30 41 1.0 13
e 30 49 1.0 9
e 31 35 1.0 18
e 31 40 1.0 7
e 32 35 1.0 30
e 32 37 1.0 17
e 33 38 1.0 13
e 33 50 1.0 10
e 34 47 1.0 4
e 37 44 1.0 31
e 37 45 1.0 6
e 37 46 1.0 21
e 38 41 1.0 15
e 38 50 1.0 7
e 38 49 1.0 19
e 39 45 1.0 6
e 39 46 1.0 12
e 39 49 1.0 14
e 43 47 1.0 13
e 44 48 1.0 1
e 45 46 1.0 15
e 46 49 1.0 6
