p 50 130
e 8 6 0.80 9
e 8 10 0.80 4
e 8 22 0.80 8
e 8 25 0.80 6
e 8 28 0.80 20
e 2 14 0.80 27
e 2 17 0.80 13
e 2 35 0.80 23
e 2 41 0.80 4
e 2 45 0.80 12
e 3 11 0.80 8
e 3 24 0.80 17
e 3 29 0.80 7
e 3 31 0.80 11
e 3 49 0.80 8
e 4 1 0.80 20
e 4 11 0.80 8
e 4 21 0.80 15
e 4 36 0.80 9
e 4 43 0.80 17
e 5 6 0.80 13
e 5 42 0.80 5
e 5 48 0.80 43
e 5 50 0.80 6
e 6 25 0.80 13
e 6 27 0.80 18
e 6 28 0.80 25
e 6 42 0.80 10
e 6 48 0.80 40
e 7 13 0.80 7
e 7 15 0.80 26
e 7 23 0.80 26
e 7 24 0.80 23
e 7 35 0.80 14
e 7 40 0.80 11
e 1 21 0.80 10
e 1 26 0.80 11
e 9 20 0.80 7
e 9 32 0.80 12
e 9 34 0.80 13
e 9 39 0.80 14
e 9 47 0.80 16
e 10 12 0.80 8
e 10 22 0.80 6
e 10 25 0.80 3
e 11 21 0.80 12
e 11 31 0.80 11
e 11 36 0.80 15
e 11 49 0.80 13
e 12 19 0.80 24
e 12 22 0.80 6
e 12 25 0.80 8
e 12 27 0.80 8
e 12 38 0.80 21
e 12 44 0.80 8
e 13 14 0.80 7
e 13 35 0.80 13
e 13 40 0.80 4
e 14 35 0.80 17
e 14 40 0.80 3
e 15 17 0.80 22
e 15 24 0.80 28
e 15 30 0.80 5
e 15 35 0.80 17
e 15 46 0.80 16
e 16 18 0.80 15
e 16 28 0.80 23
e 16 30 0.80 15
e 16 38 0.80 22
e 16 44 0.80 19
e 16 46 0.80 8
e 17 18 0.80 20
e 17 28 0.80 21
e 17 30 0.80 21
e 17 35 0.80 20
e 17 45 0.80 11
e 17 48 0.80 11
e 18 28 0.80 15
e 18 30 0.80 2
e 19 27 0.80 19
e 19 32 0.80 45
e 19 34 0.80 38
e 19 37 0.80 6
e 19 38 0.80 29
e 20 39 0.80 19
e 20 43 0.80 30
e 20 47 0.80 16
e 21 26 0.80 12
e 21 31 0.80 11
e 22 28 0.80 19
e 22 44 0.80 5
e 23 24 0.80 11
e 23 26 0.80 21
e 23 31 0.80 13
e 23 40 0.80 36
e 24 29 0.80 19
e 24 31 0.80 14
e 24 46 0.80 27
e 25 27 0.80 6
e 26 31 0.80 18
e 26 40 0.80 55
e 27 37 0.80 16
e 27 42 0.80 25
e 28 44 0.80 18
e 28 48 0.80 22
e 29 46 0.80 22
e 29 49 0.80 4
e 30 46 0.80 16
e 32 34 0.80 21
e 32 39 0.80 3
e 33 34 0.80 14
e 33 36 0.80 28
e 33 38 0.80 19
e 33 43 0.80 28
e 33 46 0.80 31
e 33 47 0.80 8
e 33 49 0.80 25
e 34 38 0.80 21
e 34 47 0.80 7
e 36 43 0.80 9
e 36 49 0.80 16
e 37 42 0.80 33
e 37 50 0.80 37
e 38 44 0.80 22
e 38 46 0.80 27
e 41 45 0.80 10
e 42 50 0.80 6
e 43 47 0.80 30
e 45 48 0.80 5
e 46 49 0.80 25
