p 50 94
e 1 49 0.900000 231
e 1 34 0.900000 184
e 1 25 0.900000 139
e 2 4 0.900000 81
e 2 5 0.900000 230
e 2 3 0.900000 200
e 2 32 0.900000 189
e 2 25 0.900000 332
e 3 12 0.900000 125
e 3 43 0.900000 146
e 3 24 0.900000 200
e 3 33 0.900000 194
e 4 9 0.900000 278
e 4 20 0.900000 348
e 4 25 0.900000 400
e 4 21 0.900000 433
e 5 34 0.900000 122
e 6 10 0.900000 92
e 6 16 0.900000 125
e 7 41 0.900000 61
e 7 43 0.900000 130
e 7 40 0.900000 130
e 8 14 0.900000 175
e 8 31 0.900000 188
e 9 42 0.900000 199
e 9 12 0.900000 125
e 9 20 0.900000 85
e 10 19 0.900000 128
e 10 16 0.900000 139
e 10 22 0.900000 36
e 11 42 0.900000 328
e 11 30 0.900000 45
e 12 42 0.900000 139
e 12 40 0.900000 161
e 13 17 0.900000 162
e 14 50 0.900000 180
e 14 46 0.900000 140
e 14 39 0.900000 90
e 15 27 0.900000 139
e 15 22 0.900000 136
e 15 23 0.900000 61
e 15 16 0.900000 72
e 16 27 0.900000 182
e 17 41 0.900000 95
e 17 40 0.900000 42
e 17 47 0.900000 149
e 18 37 0.900000 80
e 18 30 0.900000 41
e 18 50 0.900000 408
e 19 50 0.900000 490
e 19 22 0.900000 136
e 19 46 0.900000 215
e 20 37 0.900000 302
e 21 37 0.900000 247
e 22 46 0.900000 282
e 22 23 0.900000 172
e 22 35 0.900000 228
e 23 35 0.900000 218
e 23 36 0.900000 149
e 23 27 0.900000 100
e 24 26 0.900000 148
e 24 33 0.900000 41
e 24 34 0.900000 112
e 26 34 0.900000 124
e 26 48 0.900000 51
e 27 36 0.900000 85
e 27 38 0.900000 250
e 28 47 0.900000 126
e 28 35 0.900000 188
e 29 43 0.900000 177
e 29 45 0.900000 70
e 29 48 0.900000 219
e 29 36 0.900000 303
e 29 35 0.900000 126
e 29 33 0.900000 232
e 30 42 0.900000 327
e 31 42 0.900000 214
e 31 39 0.900000 150
e 33 48 0.900000 153
e 34 49 0.900000 194
e 35 45 0.900000 163
e 35 36 0.900000 272
e 37 42 0.900000 323
e 38 48 0.900000 161
e 39 47 0.900000 197
e 39 46 0.900000 172
e 40 42 0.900000 76
e 40 43 0.900000 153
e 40 41 0.900000 85
e 43 45 0.900000 139
e 44 46 0.900000 132
e 44 47 0.900000 141
e 45 47 0.900000 128
e 48 49 0.900000 152
