p 50 94
e 1 49 0.400000 231
e 1 25 0.400000 139
e 2 4 0.400000 81
e 2 5 0.400000 230
e 2 3 0.400000 200
e 2 32 0.400000 189
e 2 25 0.400000 332
e 3 43 0.400000 146
e 3 12 0.400000 125
e 3 5 0.400000 193
e 3 24 0.400000 200
e 3 32 0.400000 117
e 3 33 0.400000 194
e 4 9 0.400000 278
e 4 21 0.400000 433
e 4 20 0.400000 348
e 5 34 0.400000 122
e 5 25 0.400000 220
e 6 19 0.400000 171
e 6 10 0.400000 92
e 6 16 0.400000 125
e 7 43 0.400000 130
e 7 41 0.400000 61
e 8 31 0.400000 188
e 8 11 0.400000 264
e 8 50 0.400000 141
e 8 14 0.400000 175
e 9 42 0.400000 199
e 9 12 0.400000 125
e 9 20 0.400000 85
e 10 19 0.400000 128
e 10 16 0.400000 139
e 10 22 0.400000 36
e 11 31 0.400000 243
e 11 30 0.400000 45
e 11 42 0.400000 328
e 12 42 0.400000 139
e 12 40 0.400000 161
e 13 31 0.400000 20
e 13 47 0.400000 177
e 13 17 0.400000 162
e 13 39 0.400000 139
e 14 50 0.400000 180
e 15 23 0.400000 61
e 16 27 0.400000 182
e 17 31 0.400000 170
e 17 42 0.400000 72
e 17 40 0.400000 42
e 18 50 0.400000 408
e 18 37 0.400000 80
e 19 22 0.400000 136
e 19 50 0.400000 490
e 19 46 0.400000 215
e 20 37 0.400000 302
e 22 35 0.400000 228
e 22 46 0.400000 282
e 23 36 0.400000 149
e 24 26 0.400000 148
e 24 33 0.400000 41
e 24 34 0.400000 112
e 26 34 0.400000 124
e 26 33 0.400000 143
e 26 48 0.400000 51
e 26 49 0.400000 130
e 27 38 0.400000 250
e 27 36 0.400000 85
e 28 44 0.400000 28
e 28 35 0.400000 188
e 29 33 0.400000 232
e 29 45 0.400000 70
e 29 36 0.400000 303
e 29 35 0.400000 126
e 30 42 0.400000 327
e 31 42 0.400000 214
e 31 39 0.400000 150
e 33 43 0.400000 180
e 33 48 0.400000 153
e 34 49 0.400000 194
e 35 45 0.400000 163
e 35 36 0.400000 272
e 36 38 0.400000 171
e 37 42 0.400000 323
e 38 48 0.400000 161
e 38 49 0.400000 82
e 39 46 0.400000 172
e 40 41 0.400000 85
e 40 43 0.400000 153
e 40 42 0.400000 76
e 41 47 0.400000 73
e 43 45 0.400000 139
e 44 47 0.400000 141
e 44 46 0.400000 132
e 45 47 0.400000 128
e 48 49 0.400000 152
