<?xml version="1.0" encoding="utf-8" standalone="no"?>
<!DOCTYPE svg PUBLIC "-//W3C//DTD SVG 1.1//EN"
  "http://www.w3.org/Graphics/SVG/1.1/DTD/svg11.dtd">
<!-- Created with matplotlib (http://matplotlib.org/) -->
<svg height="168pt" version="1.1" viewBox="0 0 247 168" width="247pt" xmlns="http://www.w3.org/2000/svg" xmlns:xlink="http://www.w3.org/1999/xlink">
 <defs>
  <style type="text/css">
*{stroke-linecap:butt;stroke-linejoin:round;stroke-miterlimit:100000;}
  </style>
 </defs>
 <g id="figure_1">
  <g id="patch_1">
   <path d="M 0 168.580364 
L 247.593336 168.580364 
L 247.593336 0 
L 0 0 
z
" style="fill:#ffffff;"/>
  </g>
  <g id="axes_1">
   <g id="patch_2">
    <path d="M 37.942958 134.0475 
L 233.646036 134.0475 
L 233.646036 22.5475 
L 37.942958 22.5475 
z
" style="fill:#ffffff;"/>
   </g>
   <g id="line2d_1">
    <path clip-path="url(#p350aab524b)" d="M 37.942958 123.569694 
L 57.580457 123.396927 
L 83.539818 123.698906 
L 103.177317 123.661159 
L 122.814816 123.725039 
L 148.774178 123.449193 
L 168.411677 123.540658 
L 188.049176 123.295299 
L 214.008537 123.614701 
L 233.646036 123.62196 
" style="fill:none;stroke:#0054a8;stroke-dasharray:1.000000,1.000000;stroke-dashoffset:0.0;stroke-width:0.75;"/>
   </g>
   <g id="line2d_2">
    <path clip-path="url(#p350aab524b)" d="M 37.942958 109.42168 
L 57.580457 107.425423 
L 83.539818 104.598724 
L 103.177317 104.703255 
L 122.814816 101.548444 
L 148.774178 100.487161 
L 168.411677 100.442155 
L 188.049176 100.124206 
L 214.008537 100.246159 
L 233.646036 99.965957 
" style="fill:none;stroke:#0054a8;stroke-dasharray:2.000000,1.000000;stroke-dashoffset:0.0;stroke-width:0.75;"/>
   </g>
   <g id="line2d_3">
    <path clip-path="url(#p350aab524b)" d="M 37.942958 89.665273 
L 57.580457 81.193887 
L 83.539818 78.03472 
L 103.177317 73.034642 
L 122.814816 74.707142 
L 148.774178 71.378112 
L 168.411677 67.734036 
L 188.049176 61.424414 
L 214.008537 58.571582 
L 233.646036 67.860345 
" style="fill:none;stroke:#0054a8;stroke-dasharray:3.000000,1.000000;stroke-dashoffset:0.0;stroke-width:0.75;"/>
   </g>
   <g id="line2d_4">
    <path clip-path="url(#p350aab524b)" d="M 37.942958 71.913835 
L 57.580457 63.467129 
L 83.539818 58.904049 
L 103.177317 59.554466 
L 122.814816 52.034023 
L 148.774178 48.693379 
L 168.411677 47.167513 
L 188.049176 49.234909 
L 214.008537 46.367559 
L 233.646036 44.365495 
" style="fill:none;stroke:#0054a8;stroke-dasharray:4.000000,1.000000;stroke-dashoffset:0.0;stroke-width:0.75;"/>
   </g>
   <g id="line2d_5">
    <path clip-path="url(#p350aab524b)" d="M 37.942958 51.675423 
L 57.580457 55.531465 
L 83.539818 46.821979 
L 103.177317 46.151237 
L 122.814816 42.526035 
L 148.774178 43.35793 
L 168.411677 41.464753 
L 188.049176 39.629648 
L 214.008537 36.813112 
L 233.646036 34.147565 
" style="fill:none;stroke:#0054a8;stroke-dasharray:5.000000,1.000000;stroke-dashoffset:0.0;stroke-width:0.75;"/>
   </g>
   <g id="line2d_6">
    <path clip-path="url(#p350aab524b)" d="M 37.942958 42.046934 
L 57.580457 39.321862 
L 83.539818 38.039902 
L 103.177317 37.562253 
L 122.814816 36.135111 
L 148.774178 33.502956 
L 168.411677 31.246823 
L 188.049176 30.606569 
L 214.008537 29.101029 
L 233.646036 25.535352 
" style="fill:none;stroke:#0054a8;stroke-dasharray:6.000000,1.000000;stroke-dashoffset:0.0;stroke-width:0.75;"/>
   </g>
   <g id="patch_3">
    <path d="M 37.942958 22.5475 
L 233.646036 22.5475 
" style="fill:none;stroke:#000000;stroke-linecap:square;stroke-linejoin:miter;stroke-width:0.5;"/>
   </g>
   <g id="patch_4">
    <path d="M 233.646036 134.0475 
L 233.646036 22.5475 
" style="fill:none;stroke:#000000;stroke-linecap:square;stroke-linejoin:miter;stroke-width:0.5;"/>
   </g>
   <g id="patch_5">
    <path d="M 37.942958 134.0475 
L 233.646036 134.0475 
" style="fill:none;stroke:#000000;stroke-linecap:square;stroke-linejoin:miter;stroke-width:0.5;"/>
   </g>
   <g id="patch_6">
    <path d="M 37.942958 134.0475 
L 37.942958 22.5475 
" style="fill:none;stroke:#000000;stroke-linecap:square;stroke-linejoin:miter;stroke-width:0.5;"/>
   </g>
   <g id="matplotlib.axis_1">
    <g id="xtick_1">
     <g id="line2d_7">
      <defs>
       <path d="M 0 0 
L 0 -4 
" id="m9ff947cd39" style="stroke:#000000;stroke-width:0.5;"/>
      </defs>
      <g>
       <use style="stroke:#000000;stroke-width:0.5;" x="37.9429578125" xlink:href="#m9ff947cd39" y="134.0475"/>
      </g>
     </g>
     <g id="line2d_8">
      <defs>
       <path d="M 0 0 
L 0 4 
" id="m15f8af2334" style="stroke:#000000;stroke-width:0.5;"/>
      </defs>
      <g>
       <use style="stroke:#000000;stroke-width:0.5;" x="37.9429578125" xlink:href="#m15f8af2334" y="22.5475"/>
      </g>
     </g>
     <g id="text_1">
      <!-- $\mathdefault{10^{0}}$ -->
      <g transform="translate(31.1956578125 144.376998437)">
       <text>
        <tspan style="font-family:Open Sans;font-size:5.831px;font-style:regular;font-weight:regular;" x="9.80203613281" y="-1.9421875">0</tspan>
        <tspan style="font-family:Open Sans;font-size:8.33px;font-style:regular;font-weight:regular;" x="0.0 4.78863525391" y="-0.015625">10</tspan>
       </text>
      </g>
     </g>
    </g>
    <g id="xtick_2">
     <g id="line2d_9">
      <g>
       <use style="stroke:#000000;stroke-width:0.5;" x="103.17731735" xlink:href="#m9ff947cd39" y="134.0475"/>
      </g>
     </g>
     <g id="line2d_10">
      <g>
       <use style="stroke:#000000;stroke-width:0.5;" x="103.17731735" xlink:href="#m15f8af2334" y="22.5475"/>
      </g>
     </g>
     <g id="text_2">
      <!-- $\mathdefault{10^{1}}$ -->
      <g transform="translate(96.4300173503 144.376998437)">
       <text>
        <tspan style="font-family:Open Sans;font-size:5.831px;font-style:regular;font-weight:regular;" x="9.80203613281" y="-1.996875">1</tspan>
        <tspan style="font-family:Open Sans;font-size:8.33px;font-style:regular;font-weight:regular;" x="0.0 4.78863525391" y="-0.0703125">10</tspan>
       </text>
      </g>
     </g>
    </g>
    <g id="xtick_3">
     <g id="line2d_11">
      <g>
       <use style="stroke:#000000;stroke-width:0.5;" x="168.411676888" xlink:href="#m9ff947cd39" y="134.0475"/>
      </g>
     </g>
     <g id="line2d_12">
      <g>
       <use style="stroke:#000000;stroke-width:0.5;" x="168.411676888" xlink:href="#m15f8af2334" y="22.5475"/>
      </g>
     </g>
     <g id="text_3">
      <!-- $\mathdefault{10^{2}}$ -->
      <g transform="translate(161.664376888 144.376998437)">
       <text>
        <tspan style="font-family:Open Sans;font-size:5.831px;font-style:regular;font-weight:regular;" x="9.80203613281" y="-1.9421875">2</tspan>
        <tspan style="font-family:Open Sans;font-size:8.33px;font-style:regular;font-weight:regular;" x="0.0 4.78863525391" y="-0.015625">10</tspan>
       </text>
      </g>
     </g>
    </g>
    <g id="xtick_4">
     <g id="line2d_13">
      <g>
       <use style="stroke:#000000;stroke-width:0.5;" x="233.646036426" xlink:href="#m9ff947cd39" y="134.0475"/>
      </g>
     </g>
     <g id="line2d_14">
      <g>
       <use style="stroke:#000000;stroke-width:0.5;" x="233.646036426" xlink:href="#m15f8af2334" y="22.5475"/>
      </g>
     </g>
     <g id="text_4">
      <!-- $\mathdefault{10^{3}}$ -->
      <g transform="translate(226.898736426 144.376998437)">
       <text>
        <tspan style="font-family:Open Sans;font-size:5.831px;font-style:regular;font-weight:regular;" x="9.80203613281" y="-1.9421875">3</tspan>
        <tspan style="font-family:Open Sans;font-size:8.33px;font-style:regular;font-weight:regular;" x="0.0 4.78863525391" y="-0.015625">10</tspan>
       </text>
      </g>
     </g>
    </g>
    <g id="xtick_5">
     <g id="line2d_15">
      <defs>
       <path d="M 0 0 
L 0 -2 
" id="m111dc0235b" style="stroke:#000000;stroke-width:0.5;"/>
      </defs>
      <g>
       <use style="stroke:#000000;stroke-width:0.5;" x="57.5804567813" xlink:href="#m111dc0235b" y="134.0475"/>
      </g>
     </g>
     <g id="line2d_16">
      <defs>
       <path d="M 0 0 
L 0 2 
" id="m210b38d8f5" style="stroke:#000000;stroke-width:0.5;"/>
      </defs>
      <g>
       <use style="stroke:#000000;stroke-width:0.5;" x="57.5804567813" xlink:href="#m210b38d8f5" y="22.5475"/>
      </g>
     </g>
    </g>
    <g id="xtick_6">
     <g id="line2d_17">
      <g>
       <use style="stroke:#000000;stroke-width:0.5;" x="69.067657286" xlink:href="#m111dc0235b" y="134.0475"/>
      </g>
     </g>
     <g id="line2d_18">
      <g>
       <use style="stroke:#000000;stroke-width:0.5;" x="69.067657286" xlink:href="#m210b38d8f5" y="22.5475"/>
      </g>
     </g>
    </g>
    <g id="xtick_7">
     <g id="line2d_19">
      <g>
       <use style="stroke:#000000;stroke-width:0.5;" x="77.2179557501" xlink:href="#m111dc0235b" y="134.0475"/>
      </g>
     </g>
     <g id="line2d_20">
      <g>
       <use style="stroke:#000000;stroke-width:0.5;" x="77.2179557501" xlink:href="#m210b38d8f5" y="22.5475"/>
      </g>
     </g>
    </g>
    <g id="xtick_8">
     <g id="line2d_21">
      <g>
       <use style="stroke:#000000;stroke-width:0.5;" x="83.5398183815" xlink:href="#m111dc0235b" y="134.0475"/>
      </g>
     </g>
     <g id="line2d_22">
      <g>
       <use style="stroke:#000000;stroke-width:0.5;" x="83.5398183815" xlink:href="#m210b38d8f5" y="22.5475"/>
      </g>
     </g>
    </g>
    <g id="xtick_9">
     <g id="line2d_23">
      <g>
       <use style="stroke:#000000;stroke-width:0.5;" x="88.7051562548" xlink:href="#m111dc0235b" y="134.0475"/>
      </g>
     </g>
     <g id="line2d_24">
      <g>
       <use style="stroke:#000000;stroke-width:0.5;" x="88.7051562548" xlink:href="#m210b38d8f5" y="22.5475"/>
      </g>
     </g>
    </g>
    <g id="xtick_10">
     <g id="line2d_25">
      <g>
       <use style="stroke:#000000;stroke-width:0.5;" x="93.0723871994" xlink:href="#m111dc0235b" y="134.0475"/>
      </g>
     </g>
     <g id="line2d_26">
      <g>
       <use style="stroke:#000000;stroke-width:0.5;" x="93.0723871994" xlink:href="#m210b38d8f5" y="22.5475"/>
      </g>
     </g>
    </g>
    <g id="xtick_11">
     <g id="line2d_27">
      <g>
       <use style="stroke:#000000;stroke-width:0.5;" x="96.8554547189" xlink:href="#m111dc0235b" y="134.0475"/>
      </g>
     </g>
     <g id="line2d_28">
      <g>
       <use style="stroke:#000000;stroke-width:0.5;" x="96.8554547189" xlink:href="#m210b38d8f5" y="22.5475"/>
      </g>
     </g>
    </g>
    <g id="xtick_12">
     <g id="line2d_29">
      <g>
       <use style="stroke:#000000;stroke-width:0.5;" x="100.192356759" xlink:href="#m111dc0235b" y="134.0475"/>
      </g>
     </g>
     <g id="line2d_30">
      <g>
       <use style="stroke:#000000;stroke-width:0.5;" x="100.192356759" xlink:href="#m210b38d8f5" y="22.5475"/>
      </g>
     </g>
    </g>
    <g id="xtick_13">
     <g id="line2d_31">
      <g>
       <use style="stroke:#000000;stroke-width:0.5;" x="122.814816319" xlink:href="#m111dc0235b" y="134.0475"/>
      </g>
     </g>
     <g id="line2d_32">
      <g>
       <use style="stroke:#000000;stroke-width:0.5;" x="122.814816319" xlink:href="#m210b38d8f5" y="22.5475"/>
      </g>
     </g>
    </g>
    <g id="xtick_14">
     <g id="line2d_33">
      <g>
       <use style="stroke:#000000;stroke-width:0.5;" x="134.302016824" xlink:href="#m111dc0235b" y="134.0475"/>
      </g>
     </g>
     <g id="line2d_34">
      <g>
       <use style="stroke:#000000;stroke-width:0.5;" x="134.302016824" xlink:href="#m210b38d8f5" y="22.5475"/>
      </g>
     </g>
    </g>
    <g id="xtick_15">
     <g id="line2d_35">
      <g>
       <use style="stroke:#000000;stroke-width:0.5;" x="142.452315288" xlink:href="#m111dc0235b" y="134.0475"/>
      </g>
     </g>
     <g id="line2d_36">
      <g>
       <use style="stroke:#000000;stroke-width:0.5;" x="142.452315288" xlink:href="#m210b38d8f5" y="22.5475"/>
      </g>
     </g>
    </g>
    <g id="xtick_16">
     <g id="line2d_37">
      <g>
       <use style="stroke:#000000;stroke-width:0.5;" x="148.774177919" xlink:href="#m111dc0235b" y="134.0475"/>
      </g>
     </g>
     <g id="line2d_38">
      <g>
       <use style="stroke:#000000;stroke-width:0.5;" x="148.774177919" xlink:href="#m210b38d8f5" y="22.5475"/>
      </g>
     </g>
    </g>
    <g id="xtick_17">
     <g id="line2d_39">
      <g>
       <use style="stroke:#000000;stroke-width:0.5;" x="153.939515793" xlink:href="#m111dc0235b" y="134.0475"/>
      </g>
     </g>
     <g id="line2d_40">
      <g>
       <use style="stroke:#000000;stroke-width:0.5;" x="153.939515793" xlink:href="#m210b38d8f5" y="22.5475"/>
      </g>
     </g>
    </g>
    <g id="xtick_18">
     <g id="line2d_41">
      <g>
       <use style="stroke:#000000;stroke-width:0.5;" x="158.306746737" xlink:href="#m111dc0235b" y="134.0475"/>
      </g>
     </g>
     <g id="line2d_42">
      <g>
       <use style="stroke:#000000;stroke-width:0.5;" x="158.306746737" xlink:href="#m210b38d8f5" y="22.5475"/>
      </g>
     </g>
    </g>
    <g id="xtick_19">
     <g id="line2d_43">
      <g>
       <use style="stroke:#000000;stroke-width:0.5;" x="162.089814257" xlink:href="#m111dc0235b" y="134.0475"/>
      </g>
     </g>
     <g id="line2d_44">
      <g>
       <use style="stroke:#000000;stroke-width:0.5;" x="162.089814257" xlink:href="#m210b38d8f5" y="22.5475"/>
      </g>
     </g>
    </g>
    <g id="xtick_20">
     <g id="line2d_45">
      <g>
       <use style="stroke:#000000;stroke-width:0.5;" x="165.426716297" xlink:href="#m111dc0235b" y="134.0475"/>
      </g>
     </g>
     <g id="line2d_46">
      <g>
       <use style="stroke:#000000;stroke-width:0.5;" x="165.426716297" xlink:href="#m210b38d8f5" y="22.5475"/>
      </g>
     </g>
    </g>
    <g id="xtick_21">
     <g id="line2d_47">
      <g>
       <use style="stroke:#000000;stroke-width:0.5;" x="188.049175857" xlink:href="#m111dc0235b" y="134.0475"/>
      </g>
     </g>
     <g id="line2d_48">
      <g>
       <use style="stroke:#000000;stroke-width:0.5;" x="188.049175857" xlink:href="#m210b38d8f5" y="22.5475"/>
      </g>
     </g>
    </g>
    <g id="xtick_22">
     <g id="line2d_49">
      <g>
       <use style="stroke:#000000;stroke-width:0.5;" x="199.536376362" xlink:href="#m111dc0235b" y="134.0475"/>
      </g>
     </g>
     <g id="line2d_50">
      <g>
       <use style="stroke:#000000;stroke-width:0.5;" x="199.536376362" xlink:href="#m210b38d8f5" y="22.5475"/>
      </g>
     </g>
    </g>
    <g id="xtick_23">
     <g id="line2d_51">
      <g>
       <use style="stroke:#000000;stroke-width:0.5;" x="207.686674826" xlink:href="#m111dc0235b" y="134.0475"/>
      </g>
     </g>
     <g id="line2d_52">
      <g>
       <use style="stroke:#000000;stroke-width:0.5;" x="207.686674826" xlink:href="#m210b38d8f5" y="22.5475"/>
      </g>
     </g>
    </g>
    <g id="xtick_24">
     <g id="line2d_53">
      <g>
       <use style="stroke:#000000;stroke-width:0.5;" x="214.008537457" xlink:href="#m111dc0235b" y="134.0475"/>
      </g>
     </g>
     <g id="line2d_54">
      <g>
       <use style="stroke:#000000;stroke-width:0.5;" x="214.008537457" xlink:href="#m210b38d8f5" y="22.5475"/>
      </g>
     </g>
    </g>
    <g id="xtick_25">
     <g id="line2d_55">
      <g>
       <use style="stroke:#000000;stroke-width:0.5;" x="219.17387533" xlink:href="#m111dc0235b" y="134.0475"/>
      </g>
     </g>
     <g id="line2d_56">
      <g>
       <use style="stroke:#000000;stroke-width:0.5;" x="219.17387533" xlink:href="#m210b38d8f5" y="22.5475"/>
      </g>
     </g>
    </g>
    <g id="xtick_26">
     <g id="line2d_57">
      <g>
       <use style="stroke:#000000;stroke-width:0.5;" x="223.541106275" xlink:href="#m111dc0235b" y="134.0475"/>
      </g>
     </g>
     <g id="line2d_58">
      <g>
       <use style="stroke:#000000;stroke-width:0.5;" x="223.541106275" xlink:href="#m210b38d8f5" y="22.5475"/>
      </g>
     </g>
    </g>
    <g id="xtick_27">
     <g id="line2d_59">
      <g>
       <use style="stroke:#000000;stroke-width:0.5;" x="227.324173794" xlink:href="#m111dc0235b" y="134.0475"/>
      </g>
     </g>
     <g id="line2d_60">
      <g>
       <use style="stroke:#000000;stroke-width:0.5;" x="227.324173794" xlink:href="#m210b38d8f5" y="22.5475"/>
      </g>
     </g>
    </g>
    <g id="xtick_28">
     <g id="line2d_61">
      <g>
       <use style="stroke:#000000;stroke-width:0.5;" x="230.661075835" xlink:href="#m111dc0235b" y="134.0475"/>
      </g>
     </g>
     <g id="line2d_62">
      <g>
       <use style="stroke:#000000;stroke-width:0.5;" x="230.661075835" xlink:href="#m210b38d8f5" y="22.5475"/>
      </g>
     </g>
    </g>
    <g id="text_5">
     <text style="font-family:Open Sans;font-size:10.0px;font-style:normal;font-weight:400;text-anchor:middle;" transform="rotate(-0.000000, 135.794497, 158.977239)" x="135.794497119" y="158.977239062">Gradient Steps</text>
    </g>
   </g>
   <g id="matplotlib.axis_2">
    <g id="ytick_1">
     <g id="line2d_63">
      <defs>
       <path d="M 0 0 
L 4 0 
" id="m27fb22a18b" style="stroke:#000000;stroke-width:0.5;"/>
      </defs>
      <g>
       <use style="stroke:#000000;stroke-width:0.5;" x="37.9429578125" xlink:href="#m27fb22a18b" y="134.0475"/>
      </g>
     </g>
     <g id="line2d_64">
      <defs>
       <path d="M 0 0 
L -4 0 
" id="m6c6ff906a2" style="stroke:#000000;stroke-width:0.5;"/>
      </defs>
      <g>
       <use style="stroke:#000000;stroke-width:0.5;" x="233.646036426" xlink:href="#m6c6ff906a2" y="134.0475"/>
      </g>
     </g>
     <g id="text_6">
      <text style="font-family:Open Sans;font-size:8.33px;font-style:normal;font-weight:400;text-anchor:end;" transform="rotate(-0.000000, 33.942958, 136.211348)" x="33.9429578125" y="136.211347656">0.0</text>
     </g>
    </g>
    <g id="ytick_2">
     <g id="line2d_65">
      <g>
       <use style="stroke:#000000;stroke-width:0.5;" x="37.9429578125" xlink:href="#m27fb22a18b" y="120.11"/>
      </g>
     </g>
     <g id="line2d_66">
      <g>
       <use style="stroke:#000000;stroke-width:0.5;" x="233.646036426" xlink:href="#m6c6ff906a2" y="120.11"/>
      </g>
     </g>
     <g id="text_7">
      <text style="font-family:Open Sans;font-size:8.33px;font-style:normal;font-weight:400;text-anchor:end;" transform="rotate(-0.000000, 33.942958, 122.273848)" x="33.9429578125" y="122.273847656">0.1</text>
     </g>
    </g>
    <g id="ytick_3">
     <g id="line2d_67">
      <g>
       <use style="stroke:#000000;stroke-width:0.5;" x="37.9429578125" xlink:href="#m27fb22a18b" y="106.1725"/>
      </g>
     </g>
     <g id="line2d_68">
      <g>
       <use style="stroke:#000000;stroke-width:0.5;" x="233.646036426" xlink:href="#m6c6ff906a2" y="106.1725"/>
      </g>
     </g>
     <g id="text_8">
      <text style="font-family:Open Sans;font-size:8.33px;font-style:normal;font-weight:400;text-anchor:end;" transform="rotate(-0.000000, 33.942958, 108.336348)" x="33.9429578125" y="108.336347656">0.2</text>
     </g>
    </g>
    <g id="ytick_4">
     <g id="line2d_69">
      <g>
       <use style="stroke:#000000;stroke-width:0.5;" x="37.9429578125" xlink:href="#m27fb22a18b" y="92.235"/>
      </g>
     </g>
     <g id="line2d_70">
      <g>
       <use style="stroke:#000000;stroke-width:0.5;" x="233.646036426" xlink:href="#m6c6ff906a2" y="92.235"/>
      </g>
     </g>
     <g id="text_9">
      <text style="font-family:Open Sans;font-size:8.33px;font-style:normal;font-weight:400;text-anchor:end;" transform="rotate(-0.000000, 33.942958, 94.398848)" x="33.9429578125" y="94.3988476562">0.3</text>
     </g>
    </g>
    <g id="ytick_5">
     <g id="line2d_71">
      <g>
       <use style="stroke:#000000;stroke-width:0.5;" x="37.9429578125" xlink:href="#m27fb22a18b" y="78.2975"/>
      </g>
     </g>
     <g id="line2d_72">
      <g>
       <use style="stroke:#000000;stroke-width:0.5;" x="233.646036426" xlink:href="#m6c6ff906a2" y="78.2975"/>
      </g>
     </g>
     <g id="text_10">
      <text style="font-family:Open Sans;font-size:8.33px;font-style:normal;font-weight:400;text-anchor:end;" transform="rotate(-0.000000, 33.942958, 80.461348)" x="33.9429578125" y="80.4613476562">0.4</text>
     </g>
    </g>
    <g id="ytick_6">
     <g id="line2d_73">
      <g>
       <use style="stroke:#000000;stroke-width:0.5;" x="37.9429578125" xlink:href="#m27fb22a18b" y="64.36"/>
      </g>
     </g>
     <g id="line2d_74">
      <g>
       <use style="stroke:#000000;stroke-width:0.5;" x="233.646036426" xlink:href="#m6c6ff906a2" y="64.36"/>
      </g>
     </g>
     <g id="text_11">
      <text style="font-family:Open Sans;font-size:8.33px;font-style:normal;font-weight:400;text-anchor:end;" transform="rotate(-0.000000, 33.942958, 66.523848)" x="33.9429578125" y="66.5238476562">0.5</text>
     </g>
    </g>
    <g id="ytick_7">
     <g id="line2d_75">
      <g>
       <use style="stroke:#000000;stroke-width:0.5;" x="37.9429578125" xlink:href="#m27fb22a18b" y="50.4225"/>
      </g>
     </g>
     <g id="line2d_76">
      <g>
       <use style="stroke:#000000;stroke-width:0.5;" x="233.646036426" xlink:href="#m6c6ff906a2" y="50.4225"/>
      </g>
     </g>
     <g id="text_12">
      <text style="font-family:Open Sans;font-size:8.33px;font-style:normal;font-weight:400;text-anchor:end;" transform="rotate(-0.000000, 33.942958, 52.586348)" x="33.9429578125" y="52.5863476562">0.6</text>
     </g>
    </g>
    <g id="ytick_8">
     <g id="line2d_77">
      <g>
       <use style="stroke:#000000;stroke-width:0.5;" x="37.9429578125" xlink:href="#m27fb22a18b" y="36.485"/>
      </g>
     </g>
     <g id="line2d_78">
      <g>
       <use style="stroke:#000000;stroke-width:0.5;" x="233.646036426" xlink:href="#m6c6ff906a2" y="36.485"/>
      </g>
     </g>
     <g id="text_13">
      <text style="font-family:Open Sans;font-size:8.33px;font-style:normal;font-weight:400;text-anchor:end;" transform="rotate(-0.000000, 33.942958, 38.648848)" x="33.9429578125" y="38.6488476562">0.7</text>
     </g>
    </g>
    <g id="ytick_9">
     <g id="line2d_79">
      <g>
       <use style="stroke:#000000;stroke-width:0.5;" x="37.9429578125" xlink:href="#m27fb22a18b" y="22.5475"/>
      </g>
     </g>
     <g id="line2d_80">
      <g>
       <use style="stroke:#000000;stroke-width:0.5;" x="233.646036426" xlink:href="#m6c6ff906a2" y="22.5475"/>
      </g>
     </g>
     <g id="text_14">
      <text style="font-family:Open Sans;font-size:8.33px;font-style:normal;font-weight:400;text-anchor:end;" transform="rotate(-0.000000, 33.942958, 24.711348)" x="33.9429578125" y="24.7113476562">0.8</text>
     </g>
    </g>
    <g id="text_15">
     <text style="font-family:Open Sans;font-size:10.0px;font-style:normal;font-weight:400;text-anchor:middle;" transform="rotate(-90.000000, 14.798438, 78.297500)" x="14.7984375" y="78.2975">Reward</text>
    </g>
   </g>
   <g id="legend_1">
    <g id="line2d_81">
     <path d="M 40.970533 13.945998 
L 52.632533 13.945998 
" style="fill:none;stroke:#0054a8;stroke-dasharray:1.000000,1.000000;stroke-dashoffset:0.0;stroke-width:0.75;"/>
    </g>
    <g id="line2d_82"/>
    <g id="text_16">
     <text style="font-family:Open Sans;font-size:8.33px;font-style:normal;font-weight:400;text-anchor:start;" transform="rotate(-0.000000, 60.962533, 16.861498)" x="60.9625333008" y="16.8614984375">1</text>
    </g>
    <g id="line2d_83">
     <path d="M 40.970533 26.4423 
L 52.632533 26.4423 
" style="fill:none;stroke:#0054a8;stroke-dasharray:2.000000,1.000000;stroke-dashoffset:0.0;stroke-width:0.75;"/>
    </g>
    <g id="line2d_84"/>
    <g id="text_17">
     <text style="font-family:Open Sans;font-size:8.33px;font-style:normal;font-weight:400;text-anchor:start;" transform="rotate(-0.000000, 60.962533, 29.357800)" x="60.9625333008" y="29.3578">3</text>
    </g>
    <g id="line2d_85">
     <path d="M 79.88595 13.945998 
L 91.54795 13.945998 
" style="fill:none;stroke:#0054a8;stroke-dasharray:3.000000,1.000000;stroke-dashoffset:0.0;stroke-width:0.75;"/>
    </g>
    <g id="line2d_86"/>
    <g id="text_18">
     <text style="font-family:Open Sans;font-size:8.33px;font-style:normal;font-weight:400;text-anchor:start;" transform="rotate(-0.000000, 99.877950, 16.861498)" x="99.8779504883" y="16.8614984375">5</text>
    </g>
    <g id="line2d_87">
     <path d="M 118.801368 13.945998 
L 130.463368 13.945998 
" style="fill:none;stroke:#0054a8;stroke-dasharray:4.000000,1.000000;stroke-dashoffset:0.0;stroke-width:0.75;"/>
    </g>
    <g id="line2d_88"/>
    <g id="text_19">
     <text style="font-family:Open Sans;font-size:8.33px;font-style:normal;font-weight:400;text-anchor:start;" transform="rotate(-0.000000, 138.793368, 16.861498)" x="138.793367676" y="16.8614984375">7</text>
    </g>
    <g id="line2d_89">
     <path d="M 157.716785 13.945998 
L 169.378785 13.945998 
" style="fill:none;stroke:#0054a8;stroke-dasharray:5.000000,1.000000;stroke-dashoffset:0.0;stroke-width:0.75;"/>
    </g>
    <g id="line2d_90"/>
    <g id="text_20">
     <text style="font-family:Open Sans;font-size:8.33px;font-style:normal;font-weight:400;text-anchor:start;" transform="rotate(-0.000000, 177.708785, 16.861498)" x="177.708784863" y="16.8614984375">9</text>
    </g>
    <g id="line2d_91">
     <path d="M 196.632202 13.945998 
L 208.294202 13.945998 
" style="fill:none;stroke:#0054a8;stroke-dasharray:6.000000,1.000000;stroke-dashoffset:0.0;stroke-width:0.75;"/>
    </g>
    <g id="line2d_92"/>
    <g id="text_21">
     <text style="font-family:Open Sans;font-size:8.33px;font-style:normal;font-weight:400;text-anchor:start;" transform="rotate(-0.000000, 216.624202, 16.861498)" x="216.624202051" y="16.8614984375">11</text>
    </g>
   </g>
  </g>
 </g>
 <defs>
  <clipPath id="p350aab524b">
   <rect height="111.5" width="195.703078613" x="37.9429578125" y="22.5475"/>
  </clipPath>
 </defs>
</svg>
